2021-09-09 13:03:58.496473,10,46708,52401,47225.5,
2021-09-09 21:00:00.080609,50,47261,52086,47699.5,0.0049841
2021-09-10 00:00:00.111467,-50,48970,43854,48504.5,0.0049741
2021-09-14 00:00:00.002587,-50,48156,42928,47680.5,0.0050000
2021-09-14 23:59:59.989335,-50,48283,44218,47913.5,0.00498692
2021-09-15 02:59:59.875492,-50,48460,44459,48096.5,0.00497755
2021-09-19 13:59:59.810011,50,49018,51521,49245.5,0.00389500
2021-10-01 18:59:59.851036,-50,46179,42458,45840.5,0.00388760
2021-10-03 00:00:00.063245,-50,49005,45845,48718,0.00387983
2021-10-03 06:59:59.858487,-50,49534,46615,49268.5,0.00387256
2021-10-04 06:00:00.361445,-193,50208,47390,49952,0.0038465
2021-10-05 06:00:00.424364,-194,50944,46135,50507,0.0038056
2021-10-05 21:00:00.258476,-196,51960,47839,51585.5,0.00376851
2021-10-06 08:00:00.238336,-198,53063,48664,52663,0.00373251
2021-10-06 10:00:00.359158,-196,52963,48586,52565.5,0.00369852
