,symbol,interval,open_time,open,high,low,close,volume,turnover,bb_upper,bb_middle,bb_lower,ATR
2021-10-04 10:00:00,BTCUSDZ21,60,1633302000,49062,49380.5,48963.5,49280.5,416570,8.46238788,,,,
2021-10-04 11:00:00,BTCUSDZ21,60,1633305600,49280.5,49340,48938,48970.5,599986,12.22102309,,,,
2021-10-04 12:00:00,BTCUSDZ21,60,1633309200,48970.5,49240,48838,48880.5,932854,19.04646444,,,,
2021-10-04 13:00:00,BTCUSDZ21,60,1633312800,48880.5,48919.5,48700.5,48776.5,475152,9.73459796,,,,
2021-10-04 14:00:00,BTCUSDZ21,60,1633316400,48776.5,48871.5,48443,48608.5,1050171,21.59683109,,,,
2021-10-04 15:00:00,BTCUSDZ21,60,1633320000,48608.5,48906,48432.5,48858.5,1297785,26.71858226,,,,
2021-10-04 16:00:00,BTCUSDZ21,60,1633323600,48858.5,48964.5,48850,48884.5,253219,5.17854081,,,,
2021-10-04 17:00:00,BTCUSDZ21,60,1633327200,48884.5,48906,48651.5,48808,369089,7.56645394,,,,
2021-10-04 18:00:00,BTCUSDZ21,60,1633330800,48808,48919.5,48700,48919.5,657507,13.45320436,,,,
2021-10-04 19:00:00,BTCUSDZ21,60,1633334400,48919.5,49040,48580,48699.5,349474,7.16441405,,,,
2021-10-04 20:00:00,BTCUSDZ21,60,1633338000,48699.5,48838,48640,48799.5,621580,12.74315297,,,,
2021-10-04 21:00:00,BTCUSDZ21,60,1633341600,48799.5,48836,48566,48700,188270,3.86647639,,,,
2021-10-04 22:00:00,BTCUSDZ21,60,1633345200,48700,48740,48449.5,48671,382115,7.87162099,,,,
2021-10-04 23:00:00,BTCUSDZ21,60,1633348800,48671,48880,48560,48837,484774,9.93889428,,,,
2021-10-05 00:00:00,BTCUSDZ21,60,1633352400,48837,49240,48788,49240,913907,18.64992851,,,,321.7142857142857
2021-10-05 01:00:00,BTCUSDZ21,60,1633356000,49240,49606,48378,48563.5,2697947,55.00756756,,,,386.44897959183675
2021-10-05 02:00:00,BTCUSDZ21,60,1633359600,48563.5,48828,47967,48827.5,3507424,72.38148718,,,,420.3454810495627
2021-10-05 03:00:00,BTCUSDZ21,60,1633363200,48827.5,50050,48796.5,49757,3414990,68.98913312,,,,479.8565181174511
2021-10-05 04:00:00,BTCUSDZ21,60,1633366800,49757,50691.5,49360,50460.5,2895496,57.7219739,,,,540.688195394776
2021-10-05 05:00:00,BTCUSDZ21,60,1633370400,50460.5,50674,50211,50507,1540188,30.51695957,50032.52886151804,49052.475,48072.42113848196,535.1390385808635
2021-10-05 06:00:00,BTCUSDZ21,60,1633374000,50507,50651,50112,50530.5,1850748,36.74571167,50252.219233432916,49114.975,47977.73076656708,535.4148215393732
2021-10-05 07:00:00,BTCUSDZ21,60,1633377600,50530.5,50671.5,50221.5,50227,853979,16.94603839,50393.31796959149,49177.8,47962.28203040852,529.3137628579894
2021-10-05 08:00:00,BTCUSDZ21,60,1633381200,50227,50350,49778.5,50122.5,1613506,32.19040512,50502.9315259718,49239.9,47976.868474028204,532.3270655109902
2021-10-05 09:00:00,BTCUSDZ21,60,1633384800,50122.5,50225.5,49859.5,50093,821049,16.40119292,50595.811209706735,49305.725,48015.63879029326,520.4465608316337
2021-10-05 10:00:00,BTCUSDZ21,60,1633388400,50093,50658,50093,50441,890183,17.63005673,50726.69716537839,49397.35,48068.002834621606,523.6289493436599
2021-10-05 11:00:00,BTCUSDZ21,60,1633392000,50441,51045,50254.5,50747.5,796308,15.69857911,50901.244177468485,49491.8,48082.35582253152,542.6911672476842
2021-10-05 12:00:00,BTCUSDZ21,60,1633395600,50747.5,50851,50420,50476,431025,8.52431969,51007.755908002924,49571.375,48134.994091997076,534.7132267299925
2021-10-05 13:00:00,BTCUSDZ21,60,1633399200,50476,50600,50307.5,50567.5,348494,6.90494927,51110.02454451386,49659.35,48208.67545548614,517.4122819635644
2021-10-05 14:00:00,BTCUSDZ21,60,1633402800,50567.5,50700,50390,50561.5,1085071,21.51313409,51199.45896941764,49741.45,48283.441030582355,502.59711896616693
2021-10-05 15:00:00,BTCUSDZ21,60,1633406400,50561.5,50561.5,50380.5,50419.5,190131,3.7681168,51241.81558884256,49827.45,48413.08441115743,479.6258961828693
2021-10-05 16:00:00,BTCUSDZ21,60,1633410000,50419.5,50659.5,50399.5,50602,692046,13.68132561,51296.023040833,49917.575,48539.12695916699,463.93833216980727
2021-10-05 17:00:00,BTCUSDZ21,60,1633413600,50602,50747.5,50567,50601.5,173786,3.43028397,51318.959559828596,50012.65,48706.34044017141,443.69273701482103
2021-10-05 18:00:00,BTCUSDZ21,60,1633417200,50601.5,50978.5,50567.5,50791,267155,5.2586891,51333.79619453749,50118.65,48903.50380546251,441.3575415137624
2021-10-05 19:00:00,BTCUSDZ21,60,1633420800,50791,51271,50724.5,51242.5,1195362,23.40977071,51408.63306155818,50238.925,49069.21693844182,448.86771711992225
2021-10-05 20:00:00,BTCUSDZ21,60,1633424400,51242.5,51599.5,50931.5,51585,1051016,20.49113216,51562.63828592068,50356.175,49149.71171407933,464.5200230399278
2021-10-05 21:00:00,BTCUSDZ21,60,1633428000,51585,51627.5,51139,51269.5,1136186,22.09736491,51496.84036168505,50491.475,49486.10963831495,466.23287853707586
2021-10-05 22:00:00,BTCUSDZ21,60,1633431600,51269.5,51371,51105,51139.5,395406,7.71137238,51373.19786695847,50607.075,49840.95213304152,451.93053007014186
2021-10-05 23:00:00,BTCUSDZ21,60,1633435200,51139.5,51350,51027,51271.5,584920,11.42864925,51405.860268856755,50682.8,49959.73973114325,442.7212064937031
2021-10-06 00:00:00,BTCUSDZ21,60,1633438800,51271.5,51568,51023.5,51497,653894,12.74548961,51517.88853539195,50734.625,49951.36146460805,449.9911203155815
2021-10-06 01:00:00,BTCUSDZ21,60,1633442400,51497,51630,50861.5,51084,907155,17.72451402,51552.26236074722,50763.475,49974.68763925278,472.74175457875424
2021-10-06 02:00:00,BTCUSDZ21,60,1633446000,51084,51367,50941.5,50970.5,570014,11.13662828,51572.09283889908,50785.475,49998.85716110092,469.3673435374147
2021-10-06 03:00:00,BTCUSDZ21,60,1633449600,50970.5,51256.5,50878,51256.5,843364,16.52645066,51608.69986355772,50836.95,50065.200136442276,462.87681899902793
2021-10-06 04:00:00,BTCUSDZ21,60,1633453200,51256.5,51327.5,51139,51327.5,327766,6.39229201,51632.13464362599,50897.2,50162.265356374,443.2784747848117
2021-10-06 05:00:00,BTCUSDZ21,60,1633456800,51327.5,51940,51327,51856,999914,19.34414529,51733.08487888455,50985.35,50237.61512111545,455.4014408716108
2021-10-06 06:00:00,BTCUSDZ21,60,1633460400,51856,52699.5,51818,52423,1549091,29.7115337,51986.73175305797,51084.45,50182.16824694203,485.8370522379243
2021-10-06 07:00:00,BTCUSDZ21,60,1633464000,52423,53000,52318.5,52663,1241384,23.54520076,52261.73989285885,51180.225,50098.710107141145,499.81297707807255
2021-10-06 08:00:00,BTCUSDZ21,60,1633467600,52663,53099.5,52520.5,52941.5,1002601,18.99267701,52545.52836924122,51303.5,50061.47163075878,505.46919300106737
2021-10-06 09:00:00,BTCUSDZ21,60,1633471200,52941.5,52959,52565.5,52565.5,1311177,24.91495173,52699.761374617265,51403.4,50107.03862538274,497.47139350099116
