,symbol,interval,open_time,open,high,low,close,volume,turnover,bb_upper,bb_middle,bb_lower,ATR
2021-11-15 10:00:00,BTCUSDZ21,60,1636970400,67233,67286,66937,67167,7362066,109.71387222,,,,
2021-11-15 11:00:00,BTCUSDZ21,60,1636974000,67167,67196,66900.5,67051,1073424,16.00304134,,,,
2021-11-15 12:00:00,BTCUSDZ21,60,1636977600,67051,67349.5,66877,67080,1564998,23.31507701,,,,
2021-11-15 13:00:00,BTCUSDZ21,60,1636981200,67080,67150,66682.5,66771,513584,7.67760934,,,,
2021-11-15 14:00:00,BTCUSDZ21,60,1636984800,66771,66771.5,65862.5,66052,5552683,83.73048981,,,,
2021-11-15 15:00:00,BTCUSDZ21,60,1636988400,66052,66052.5,65306,65359,2832945,43.18252028,,,,
2021-11-15 16:00:00,BTCUSDZ21,60,1636992000,65359,65545,64950.5,65334.5,1745720,26.75615846,,,,
2021-11-15 17:00:00,BTCUSDZ21,60,1636995600,65334.5,65515.5,65082.5,65115,8703743,133.20639346,,,,
2021-11-15 18:00:00,BTCUSDZ21,60,1636999200,65115,65241.5,64661,64861,1692927,26.09410277,,,,
2021-11-15 19:00:00,BTCUSDZ21,60,1637002800,64861,65342.5,64661,65294,1506639,23.20372121,,,,
2021-11-15 20:00:00,BTCUSDZ21,60,1637006400,65294,65294,64830,64939.5,1095708,16.85264377,,,,
2021-11-15 21:00:00,BTCUSDZ21,60,1637010000,64939.5,65039.5,64309,64930,5611115,86.74517798,,,,
2021-11-15 22:00:00,BTCUSDZ21,60,1637013600,64930,65064.5,64424.5,65007.5,2068124,31.97172556,,,,
2021-11-15 23:00:00,BTCUSDZ21,60,1637017200,65007.5,65014,64500,64613,645490,9.96709993,,,,
2021-11-16 00:00:00,BTCUSDZ21,60,1637020800,64613,64613,63341.5,63443.5,38398815,602.66641004,,,,628.6071428571429
2021-11-16 01:00:00,BTCUSDZ21,60,1637024400,63443.5,63544,61725,62944,38291456,610.91343382,,,,713.6352040816328
2021-11-16 02:00:00,BTCUSDZ21,60,1637028000,62944,63027.5,62279.5,62405.5,9857708,157.76900015,,,,716.0898323615162
2021-11-16 03:00:00,BTCUSDZ21,60,1637031600,62405.5,62603.5,61115,61550.5,45102294,731.37894897,,,,771.2619871928365
2021-11-16 04:00:00,BTCUSDZ21,60,1637035200,61550.5,62239.5,60944,61911,36224990,589.68280685,,,,808.7075595362054
2021-11-16 05:00:00,BTCUSDZ21,60,1637038800,61911,62140,61488,61710.5,3044011,49.2346506,67834.58522602153,64676.975,61519.36477397846,797.5141624264764
2021-11-16 06:00:00,BTCUSDZ21,60,1637042400,61710.5,61796.5,61048.5,61568,1420474,23.11921195,67602.95516478445,64397.025,61191.09483521555,793.977436538871
2021-11-16 07:00:00,BTCUSDZ21,60,1637046000,61568,61799,61101,61505,2617734,42.60751708,67320.15059364759,64119.725,60919.2994063524,787.121905357523
2021-11-16 08:00:00,BTCUSDZ21,60,1637049600,61505,61682,61338.5,61682,1588193,25.81547849,66940.091246503,63849.825,60759.558753496996,755.4346264034142
2021-11-16 09:00:00,BTCUSDZ21,60,1637053200,61682,61975,60668,60798.5,8708536,142.64664612,66614.97844016203,63551.2,60487.42155983797,794.8321530888845
2021-11-16 10:00:00,BTCUSDZ21,60,1637056800,60798.5,60988,59092,60865.5,15053189,250.8947509,66345.43120185306,63291.875,60238.31879814694,873.4869992968214
2021-11-16 11:00:00,BTCUSDZ21,60,1637060400,60865.5,61406,60773.5,61320,2478235,40.52855587,66111.47132072286,63089.925,60068.378679277135,856.2736422041913
2021-11-16 12:00:00,BTCUSDZ21,60,1637064000,61320,61618.5,60932,60933,1623253,26.518828,65854.86608221791,62869.85,59884.83391778209,844.1469534753205
2021-11-16 13:00:00,BTCUSDZ21,60,1637067600,60933,61550,60932.5,61341.5,1268905,20.7133104,65571.98765482122,62681.175,59790.362345178786,827.9578853699404
2021-11-16 14:00:00,BTCUSDZ21,60,1637071200,61341.5,62185.5,61259.5,61677.5,1122738,18.20225736,65291.1396947427,62522.0,59752.8603052573,834.9608935578018
2021-11-16 15:00:00,BTCUSDZ21,60,1637074800,61677.5,61823.5,61373.5,61518.5,3052118,49.52719114,64877.041931989304,62333.225,59789.40806801069,807.4636868751016
2021-11-16 16:00:00,BTCUSDZ21,60,1637078400,61518.5,61699.5,61123,61428,1036084,16.88349771,64482.18480423494,62157.65,59833.115195765065,790.9662806697372
2021-11-16 17:00:00,BTCUSDZ21,60,1637082000,61428,61558,61015,61273,843830,13.77009904,64018.521565526775,61974.8,59931.07843447323,773.2544034790417
2021-11-16 18:00:00,BTCUSDZ21,60,1637085600,61273,61440,60850,60850,992270,16.25177672,63425.777506485705,61766.925,60108.0724935143,760.1648032305386
2021-11-16 19:00:00,BTCUSDZ21,60,1637089200,60850,61429.5,60735,61069,1790541,29.42120606,62779.995176672295,61589.725,60399.4548233277,755.474460142643
2021-11-16 20:00:00,BTCUSDZ21,60,1637092800,61069,61069,60000,60593,6362726,105.05998199,62424.52203004008,61447.2,60469.87796995991,777.8691415610257
2021-11-16 21:00:00,BTCUSDZ21,60,1637096400,60593,61800,60556.5,61395,1117695,18.22674224,62126.86172722393,61369.75,60612.63827277607,811.1284885923809
2021-11-16 22:00:00,BTCUSDZ21,60,1637100000,61395,62000,61283.5,61493,895004,14.52079086,61952.73018362085,61324.125,60695.51981637915,804.3693108357822
2021-11-16 23:00:00,BTCUSDZ21,60,1637103600,61493,61558,60978,61023,575843,9.40292548,61929.634769954144,61297.75,60665.865230045856,788.3429314903693
2021-11-17 00:00:00,BTCUSDZ21,60,1637107200,61023,61347.5,60424.5,60652.5,1060313,17.46429563,61861.70095764618,61234.825,60607.949042353815,797.9612935267716
2021-11-17 01:00:00,BTCUSDZ21,60,1637110800,60652.5,61191.5,60120.5,60286,743373,12.24714106,61860.53995193309,61163.6,60466.66004806691,817.4640582748592
2021-11-17 02:00:00,BTCUSDZ21,60,1637114400,60286,60667,60000,60269,745474,12.36053792,61857.07867568386,61098.65,60340.221324316146,806.7166255409408
2021-11-17 03:00:00,BTCUSDZ21,60,1637118000,60269,60680,59409.5,59934.5,3280079,54.52295169,61885.01567567797,61020.125,60155.23432432203,839.8440094308736
2021-11-17 04:00:00,BTCUSDZ21,60,1637121600,59934.5,60461,59555,60329,1428031,23.7514385,61812.48612694865,60952.475,60092.46387305135,844.5694373286684
2021-11-17 05:00:00,BTCUSDZ21,60,1637125200,60329,60749.5,60172,60535,928673,15.35026305,61813.0563867575,60939.3,60065.54361324251,825.4930489480492
2021-11-17 06:00:00,BTCUSDZ21,60,1637128800,60535,60715,60212.5,60506,1281101,21.21808466,61811.23307068805,60921.325,60031.41692931194,802.4221168803315
2021-11-17 07:00:00,BTCUSDZ21,60,1637132400,60506,61124,60236,60670.5,1698589,28.01688855,61768.03300603468,60888.85,60009.666993965315,808.5348228174506
2021-11-17 08:00:00,BTCUSDZ21,60,1637136000,60670.5,60909.5,60510,60517.5,632411,10.42358542,61758.910861018376,60868.075,59977.23913898162,779.3180497590613
2021-11-17 09:00:00,BTCUSDZ21,60,1637139600,60517.5,60517.5,59750,59842.5,2522493,41.99497154,61746.7867979527,60793.125,59839.4632020473,778.4739033476998
2021-11-17 10:00:00,BTCUSDZ21,60,1637143200,59842.5,61635.5,59311,61545.5,4417646,73.2454432,61721.58084243696,60786.525,59851.46915756304,888.904338822864
2021-11-17 11:00:00,BTCUSDZ21,60,1637146800,61545.5,61850,61330.5,61849.5,2427664,39.44432324,61787.80379173759,60803.075,59818.3462082624,862.518314621231
