2021-08-27 17:36:03.917565,-10,48972,48820,48958.0,48964.5
2021-08-27 21:34:05.131034,-10,49505,49439,49499.0,49499.0
2021-08-27 22:42:04.468154,10,49088,49133,49092.0,49220.0
2021-08-27 23:16:04.483444,10,48793,48878,48800.5,48830.5
2021-08-28 08:20:04.093053,10,50703,50756,50707.5,50790.5
2021-08-28 08:54:04.368174,10,50855,50879,50857.0,50890.5
2021-08-28 09:28:04.884818,10,50793,50822,50795.5,50879.5
2021-08-28 10:02:04.840514,10,50910,50960,50914.5,51017.5
2021-08-28 10:36:04.601304,-10,51027,50948,51020.0,51000.0
2021-08-29 10:24:04.546226,10,50623,50691,50629.5,50633.0
2021-08-29 12:00:03.698664,-10,51219,51177,51215.0,51215.5
2021-08-29 14:00:04.499273,10,49915,49991,49921.5,49921.5
2021-08-29 16:00:05.000088,10,50057,50080,50059.5,50059.5
2021-08-29 18:00:05.162558,-10,50224,50195,50221.5,50221.0
2021-08-29 20:00:04.994239,-10,50323,50286,50320.0,50319.5
2021-08-30 22:00:07.205330,-10,49579,49513,49573.0,49571.5
2021-08-31 00:00:04.805445,-10,49449,49403,49444.5,49444.0
2021-08-31 04:00:03.660450,-10,50053,50019,50050.0,50050.0
2021-08-31 10:00:02.352758,10,48430,49548,48532.0,