timeframe,condition,stdev,rr,patr,won,lost,capital
10,simple_gmiddle,1.5,5,8,7,24,1044.4899361527532
240,simple_RSI(flipped),0.1,8,1.5,1,18,758.6587415508429
240,simple_RSI,0.1,8,1.5,0,11,794.3748162949992
144,simple_RSI,1,10,1.5,1,3,1109.1782849888991
144,simple_RSI(flipped),1,10,1.5,2,20,902.4903756786206
144,simple_RSI(flipped),1.3,10,1.5,1,20,759.6207834422935
144,simple_RSI,1.3,10,1.5,1,1,1142.1631929725033
240,simple_RSI(flipped),0.2,10,1.3,1,21,748.9088621455459
240,simple_RSI,0.2,10,1.3,0,9,852.2692529552148
120,simple_RSI(flipped),0.3,8,2,1,23,649.8364629723997
120,simple_RSI,0.3,8,2,2,5,1240.1006557240523
120,simple_RSI,0.5,8,2,2,6,1092.6237710655669
120,simple_RSI(flipped),0.5,8,2,1,22,669.2927367508344
30,simple_RSI_striped,1.8,4,5,3,17,867.3389217342843
30,simple_RSI_striped,1.8,4,5,6,26,953.6401872362712
34,simple_RSI,2.5,8,3,0,0,1000
233,simple_RSI,0.2,10,1,0,12,849.2412329752726
233,simple_RSI(flipped),0.2,10,1,3,30,1018.4181493314444
13,simple_RSI_gmiddle,0.8,3,8,0,0,1000
13,simple_RSI_gmiddle,0.8,3,8,0,0,1000
233,simple_RSI(flipped),0.2,8,1.3,1,17,895.3321706794374
233,simple_RSI,0.2,8,1.3,0,12,813.1574741043595
144,simple_RSI,0.1,8,1.5,3,15,1115.961407120344
144,simple_RSI(flipped),0.1,8,1.5,1,23,694.2393925132727
144,simple_RSI_striped,1.3,5,3,1,14,702.6732262518032
144,simple_RSI_striped,1.3,5,3,2,11,915.5537496826354
60,simple_RSI_striped,1.3,5,3,4,25,878.8673868717908
60,simple_RSI_striped,1.3,5,3,5,13,1349.2783078139607
240,simple_RSI(flipped),0.3,10,1,1,29,708.5765641000287
240,simple_RSI,0.3,10,1,0,8,890.5824472831716
240,simple_RSI,0.1,10,1,0,11,852.9037520431779
240,simple_RSI(flipped),0.1,10,1,1,29,708.340491081887
144,simple_RSI,0.2,10,1.3,2,11,1084.3407524620993
60,simple_RSI,0.2,10,2,4,22,1181.5289755990073
233,simple_RSI,1,10,0.8,0,0,1000
233,simple_RSI,0.3,10,0.8,0,10,888.1942121722634
233,simple_RSI,0.2,10,0.8,0,12,874.0924500231902
233,simple_RSI(flipped),0.2,10,0.8,5,33,1139.0856184759698
233,simple_RSI(flipped),0.8,10,0.8,5,33,1138.8092485272189
120,simple_RSI(flipped),0.5,5,2,5,22,882.4329105572451
120,simple_RSI,0.5,5,2,2,9,952.7101399245395
60,simple_RSI_striped,1.3,4,3,7,15,1318.904456107214
120,simple_RSI,1,5,2,1,3,1044.4671180391686
240,simple_RSI,0.1,10,0.8,0,11,877.3831930146907
120,simple_RSI,0.3,5,2,4,12,1146.587315839892
240,simple_RSI,0.5,10,0.8,0,4,950.4441475709659
233,simple_RSI,0.3,8,0.8,2,8,1048.849226013945
233,simple_RSI,0.2,8,0.8,2,10,1032.1967618199765
233,simple_RSI,0.8,8,0.8,1,0,1083.3892252523287
240,simple_RSI,0.2,10,0.8,0,9,901.301260043377
144,simple_RSI,0.2,10,1,3,15,1137.5054509757915
144,simple_RSI,0.3,10,1,2,14,1064.3869168041597
144,simple_RSI(striped),0.2,10,1,0,0,1000
144,simple_RSI,0.8,8,1,1,4,1040.4181184730617
240,simple_RSI,0.2,8,0.8,2,8,1036.3016646753726
233,simple_RSI,0.8,10,0.5,1,0,1065.0165472283818
233,simple_RSI,0.5,10,0.5,2,5,1075.7703435008318
233,simple_RSI,0.2,10,0.5,4,10,1127.4020790028703
144,simple_RSI,0.8,10,0.8,1,4,1047.118844832569
233,simple_RSI,0.3,10,0.5,3,8,1086.7997502401206
120,simple_RSI,0.5,10,1,2,10,1041.578459544914
120,simple_RSI,0.2,10,1,4,15,1270.0771934372165
144,simple_RSI,0.3,10,0.8,3,13,1118.3456150376282
144,simple_RSI,0.1,10,0.8,4,18,1135.9374695023423
30,simple_RSI_striped,0.8,8,0.2,269,591,1332.1294353522203
30,simple_RSI_striped,0.8,8,0.2,80,196,1045.574911188195
20,simple_MOM,1,10,2,3,43,766.0550529696243
20,simple_MOM,1,10,2,11,80,1158.021233336242
55,simple_RSI,0.5,10,1.5,4,24,1078.8117287461264
233,simple_RSI,1.5,8,0.8,0,0,1000
120,simple_RSI,0.5,8,1,2,11,999.012760858302
120,simple_RSI,1,8,1,1,3,1050.9587903558195
233,simple_RSI,0.8,10,0.5,1,0,1065.0165472283818
20,simple_RSI,1.3,10,2,3,30,905.6951232747533
20,simple,1.3,10,2,10,86,1088.047734489523
20,simple_MOM,1.3,10,2,10,86,1088.047734489523
20,simple_MOM,1.3,10,2,3,17,980.3583676796086
233,simple_MOM,0.1,10,0.5,15,65,1479.4972648501491
233,simple,0.1,10,0.5,15,65,1479.4972648501491
20,simple,1.3,10,2,10,86,1088.047734489523
20,simple_MOM,1.3,10,2,10,86,1088.047734489523
233,simple_MOM,0.1,10,0.5,15,65,1479.4972648501491
233,simple_MOM,0.2,10,0.5,15,65,1479.4972648501491
233,simple,0.2,10,0.5,15,65,1479.4972648501491
233,simple,0.5,10,0.5,16,64,1567.552086541668
233,simple,1,10,0.5,13,63,1304.1577394523763
240,simple_MOM,0.2,10,0.5,12,65,1323.7409352220457
240,simple_MOM,0.5,10,0.5,11,61,1281.490645205815
240,simple_MOM,0.3,10,0.5,12,65,1324.1238253066408
240,simple_MOM,0.1,10,0.5,12,65,1323.7409352220457
240,simple,0.2,10,0.5,12,65,1323.7409352220457
120,simple_RSI_striped,1.3,10,0.8,7,45,1042.4897245987845
89,simple_RSI_striped,0.5,10,0.8,17,86,1448.9228761406155
89,simple_RSI,0.5,10,0.8,2,16,1008.0980198077119
240,simple_MOM,0.5,10,0.5,11,61,1281.490645205815
240,simple_MOM,0.8,8,0.5,21,66,1645.1224329610527
60,simple_RSI,1.3,10,0.8,2,9,1095.085364278103
60,simple_RSI,1,10,0.8,3,10,1137.6552978608147
60,simple_RSI,1.3,10,0.8,2,9,1095.085364278103
60,simple_RSI,1.5,10,0.8,1,6,1020.1836877755504
233,simple_MOM,0.2,8,0.5,22,73,1511.4090979431442
60,simple_RSI,0.8,10,0.8,6,14,1273.1664113164056
55,simple_RSI,1.3,10,0.8,2,9,1029.7621966905854
60,simple,1.8,10,0.8,23,80,1873.3312112044575
55,simple_RSI,0.2,10,0.8,13,54,1361.2700122989768
144,simple_RSI,0.8,10,0.2,2,5,1019.3448843638328
55,simple_RSI,0.5,10,0.8,8,35,1232.909053719343
89,simple_RSI,0.1,10,0.5,11,33,1234.116258524642
89,simple_RSI,0.2,10,0.5,9,29,1183.1281925205465
30,simple_RSI_striped,2,2,3,44,58,1235.6945242931513
60,simple_RSI,1,10,0.5,5,10,1146.5138115389866
55,simple_RSI,1.3,10,0.5,5,7,1091.3528630608205
233,simple_RSI,0.2,10,0.2,5,11,1069.796905382539
60,simple_RSI,0.5,10,0.5,11,32,1202.0321411114446
233,simple_MOM,0.2,10,0.2,37,96,1538.279445875589
60,simple_RSI,0.8,10,0.5,7,16,1196.4791019103984
30,simple_MOM,2.5,10,0.5,28,101,1225.9322993472822
55,simple_MOM,1.3,8,0.8,40,138,1591.5668250600797
55,simple,1.3,8,0.8,40,138,1591.5668250600797
55,simple_MOM,1.8,10,0.5,35,140,1412.2460392133075
55,simple,1.8,10,0.5,35,140,1412.2460392133075
