-0.000426616153512,-0.000580264015535,-0.000419493658236,0.000553740672618,0.0
-0.000326616153512,-0.000580264015535,-0.000419493658236,0.000553740672618,0.0
0.0006719030365300322,0.0003897160916902861,0.0006671295808068176,0.0025396318944702996,0.0
0.0009144393900596822,0.0008515761975820466,0.00021746466635651945,0.0022713042389259355,0.0
0.00024179418924273036,2.749903936016136e-05,0.0009253440267766398,0.002452579106048049,0.0
0.0004462866196066701,0.0003422660018351867,0.0005033499654227937,0.002009233731787102,0.0
0.0009718496173927666,-5.3261481284782756e-05,0.001003834490573,0.0012710071147174773,446.52855763737017
0.0009687666310634823,0.0007127221844357462,-0.000438856242870736,0.002737426651641622,19.732166359568392
0.0007075433561229413,0.0003702601065499964,0.0017006634336051004,0.0027643493904419077,0.0
0.0007105187992758204,-8.815860562006803e-05,0.00036786123402774795,0.0021416145692950877,0.0
0.0007976591590757276,0.0003604469594426783,-0.0004934010402650156,0.0008230614203065939,127.69632854721792
0.000844513372935596,0.00031297864191585494,-0.00011593848946889689,0.0015900706467754586,0.0
0.0008512866440664002,0.00018569836610684084,0.0013121637181800058,0.0029179345423266485,0.0
0.0003833237571516964,7.795795045200956e-05,0.0004471714649785584,0.0011435289362547155,571.7656347819411
0.0003571862382174648,1.991878662819087e-05,-0.00012656757765282847,0.0004942321702048069,-2104.586276754558
0.0007149120661972673,0.0003529811883569746,-9.457055733329885e-05,0.0004054187449455004,-2793.5665072354973
0.000630916018344072,0.00033236200059604665,-0.0002221092942328197,0.0016938791064521415,0.0
0.0007125696588334675,0.0002556746828564039,0.0008867102154470571,0.0012784735150876746,532.0910480356049
0.000772331544544809,0.0004603503934074795,-0.00043964979644656773,0.0017244045641621342,76.54141936058993
0.000480172018021714,0.00017671279070110316,-0.00042773659958896595,-0.0003283958289297211,166.9582627770887
0.0006046916750241699,0.0005621523664893857,0.0013329884210112,0.0019067183924130673,0.0
0.00019520101828904106,9.676821005746705e-05,0.0021522972153551526,0.002431280943632766,0.0
0.0006923282779541926,6.9423346915671065e-06,6.526743616587624e-05,0.0013219131584369882,532.0910480356049
0.0009547072497421826,0.0002857373802486392,0.0029214720879081413,0.0029244760494861665,0.0
0.0008259547136946332,0.0006138878476793347,0.0018707676151623921,0.002554770195413508,0.0
0.00040205372263591186,0.00031107837571201424,0.001507300314004664,0.002107490436320179,0.0
0.0007709674154183957,0.0002770641096296917,0.00047224246698455703,0.0014498060446155678,0.0
0.0005308095222907545,0.00016867739227248505,-0.0004161224594577525,0.0017492688599316645,75.04215721542673
0.0004939680674528841,0.00010509575728847991,0.0015723585153820715,0.0029611040260750262,0.0
0.00010950453382635863,-2.3886583142486903e-05,0.0010490929161565425,0.0013002021322624361,541.6632693480628
0.0005010612997997305,-9.8026618312026e-05,-6.29932752964347e-05,0.00289578213085638,0.0
0.000858529859345851,0.0006064098210882306,0.0013979439717257092,0.001481075127784576,0.0
3.205513504008768e-05,2.3308215385681053e-05,-0.00028738961864623383,0.0027387680208079673,-98.06969217072343
0.00029507463281387274,5.120750644382798e-06,0.0017181244080411726,0.0029954867330077677,0.0
0.0005358072311424929,0.0005243105725490393,-0.00040736374480596695,0.001996944877687975,70.19303347342142
0.0008461796909010991,0.0006886040376992608,0.0011592495646156184,0.0016726980396873869,0.0
0.000522357622177664,0.000512513581714091,0.0018577475301603044,0.0021842446288436756,0.0
0.0008115256847098315,0.00012280838747940188,0.002859760273791576,0.0029026773790751426,0.0
0.0007037153665761563,1.693799755939406e-05,0.0014279869124241447,0.0027482161145401737,0.0
0.0007447826852664271,0.0004123457899733465,0.0004521379693149891,0.002011097598561219,0.0
0.0008332787831276322,0.0003930729399762146,0.0013479298786572159,0.0019612033390995548,0.0
0.0009532768973732693,0.0008813210632549534,0.00011362384998145629,0.0006878167866246924,-2846.908795898367
0.0005047515434414216,0.00042348520797466275,-7.687176934895472e-05,0.001267379979779419,430.1943954589714
0.00013776693649834312,9.062739057723856e-05,0.00012348893069481998,0.0013757039214841536,0.0
0.0008172988528823481,8.466946978721812e-05,-0.00039927257637033557,0.0003018132112714381,-46.83998597801211
0.000596446463547579,0.00019639619787191703,-0.00024133733694060042,0.000872524176344933,675.0737291894102
0.0007054138611367246,0.0004884958808991756,0.0008300676791660724,0.0009367547593505743,467.3790758976736
0.0003507738755114232,-4.5375669574345e-05,0.0014892386831750252,0.0020915876286398743,0.0
0.000977908323637657,0.00043015543236561926,0.0003750183785404818,0.0016419963379222364,0.0
0.0007121408402933579,-8.175343744017802e-05,0.00140195862086017,0.0016906473350095323,0.0
0.000525438949497431,2.5989875757565355e-05,0.0003068343861602589,0.0021300024900593865,0.0
0.0006957614906681823,7.562173266346932e-05,-0.00034119445681494965,0.0009828333005662848,14.86679791705765
0.0008620746497616086,0.000788685665699479,0.0009983295621274384,0.0018995541301322118,0.0
0.0007118807844044587,0.0002908981995243431,0.0006007556866099799,0.0029151119962973933,0.0
0.0004813363691264036,-2.53961471146235e-05,0.0014202581087858414,0.0017672935294479682,0.0
0.00036362015656789536,0.00016919373162294597,3.9271193779440747e-05,0.002602801978336937,0.0
0.0008254612709416546,-7.347211782764311e-05,-0.00011566060505956274,0.0010691507868937373,476.41995684404003
0.0008084822947056351,0.00019020451779871436,0.00035263547513978083,0.0020684496350316904,0.0
0.0006120986573170996,0.00011481056766398934,-2.2565605820856912e-05,0.0002431079606592285,-1595.243892286757
0.0009903110885924498,0.0006097201147505205,0.0007989271329936459,0.001753949188346011,0.0
8.871023770229133e-05,2.2313168589074478e-05,-2.065298756656126e-05,0.0010681973418153715,573.0580080824932
0.0007456829258217227,5.062686166951929e-05,-0.00012191535969570795,0.0018340872814764033,0.0
0.0005637997919107688,6.248379513810138e-05,-0.0001254934154401053,0.0004672037705596673,-2325.3732084439403
0.0001412915511517418,1.5975427175833574e-05,-0.00030228905166667817,0.002463091548065233,-7.51246991850336
0.0009051387726053575,0.00038737194019815936,-0.0001870573614915656,0.002554705477829,0.0
0.0009620330274982423,0.00032161490260756195,0.0011138778071173015,0.002714509600739752,0.0
0.00046063861679968015,2.947132561867737e-05,7.507853083272447e-05,0.0014679971119919547,0.0
0.0005755356074654592,8.362812163470745e-05,-9.066131680442792e-05,0.00037879509807032424,-3083.5755644951464
0.0007393273143501566,0.0007138183590103821,4.127906815251691e-05,0.0007073055085620422,-2768.1142158168395
0.000878352193273232,4.0285141510495485e-05,-0.00038046962662583497,0.00230817229751969,65.25073753292818
0.0009313062749132465,0.00039617989476486943,0.0017229108226791338,0.002263585403869197,0.0
0.0005360796292252847,8.882833363764533e-05,0.001028041073049558,0.001682187294334842,0.0
0.000969930829306122,0.000963253475210217,-0.0002591475479379302,0.002597047943587465,0.0
0.0005898302936304422,0.0004210142714139488,-0.00011386486183259312,0.0005830222025377853,-2253.4619468437622
0.0007548787980823308,0.0003949162510004883,0.00010662182789721985,0.00046249495293630683,-2318.7691092588284
0.0006122498302373583,0.0005907509422216881,0.0013698562530023283,0.0021190501464957547,0.0
0.0005468230609058476,1.8561850045326433e-05,0.0005334994434673243,0.0021149036814683353,0.0
0.0006034322966767203,1.878180618630247e-05,0.0006527545635310731,0.0022198657067683636,0.0
0.0006308397976143882,0.0005913970893701236,-0.00016670629745558363,0.0011229636742505712,425.0593648009539
0.0006583495219148681,3.895346837400667e-06,0.0009110805196828114,0.0013041838921844635,532.0910480356049
0.0007332393215051691,0.00015223664470407895,-0.00045428985138762064,0.0003576592075734199,-64.99608529543453
0.0006257674537630308,-4.803827254684349e-05,-0.00024509450943784104,0.0008956170940186494,389.55773898421063
0.00043602837258930265,-8.238570357954088e-06,0.0009255357669061576,0.0028239698509687668,0.0
0.0008369960432901018,0.0007129517066190815,0.002470157637254652,0.002808191801391225,0.0
0.0007240212705495358,0.00046162388279925994,-9.292806643916096e-06,0.002654365514195587,0.0
0.0008973953695109284,0.0004587025788919806,0.0004342924452135353,0.0017455489708377322,0.0
0.0006520012323695983,0.00032742851687559484,0.0005669594257593951,0.0025709629757393005,0.0
0.0009385894315223184,0.00034050398654242683,0.0005387264737679331,0.0012435781654873339,446.52855763737017
0.0006346565740593861,0.0005633096470793156,0.00037897313816290365,0.0018851307900634323,0.0
0.0004941856028992427,0.00010144975073544283,0.00023021288148315474,0.0018749952104620193,0.0
0.00048330423759679347,-8.637864934972761e-05,0.0022034444597361295,0.0027721634111872264,0.0
0.0009064103153143301,0.0007781149707224068,0.00017306624122805905,0.0023267550087419588,0.0
0.0009883507642199953,0.00034030921194847685,9.269289938780513e-05,0.0009475684187088918,507.2621804052711
0.00038439610301177685,0.00028633286765309773,-0.0003747393738821389,0.0018782248263573696,63.253442460016885
0.0005015415260191731,0.0003672053673237761,0.0002642498407149132,0.00041294839372913133,-2380.900204000874
0.0009211840836837017,0.0007579510557434425,0.002844163611630502,0.0028573096294249468,0.0
0.0008910623775247267,0.0007249136933549457,-3.783154526157119e-05,-3.530406470437456e-05,-237.67245227029926
0.00017546054220726195,0.0001281971671832833,0.0011810423845366065,0.0012589623602758807,532.0910480356049
0.0009629777328250349,0.0005362426944034927,0.001050976212986516,0.0014303597875927917,0.0
0.0005238800097501421,-6.162029906097916e-06,-0.0004935142554381062,0.0024762811903103485,-10.337740023646992
0.0009322233352450791,0.0004110620482246162,0.0004679570541956837,0.0012020071688346244,571.7656347819411
0.000584775008536567,0.00019579075425919546,0.0016159223589408806,0.0018188935350993297,0.0
0.0008886934315793867,0.0002095434719857522,-0.00023160129007750873,-0.0002014946477259138,-99.70114432655582
0.0008554052510772257,0.0007046650484765002,0.0011933614040722743,0.0017745964578922517,0.0
0.0004915329890393582,0.00023578715261299011,-0.00033921505313460026,0.0002755534904411547,125.64688593140643
0.0008846875218236911,0.0005729624723350276,0.0005349755269024659,0.002832171264362949,0.0
0.0006435622256827364,0.0005535850726875046,0.0013080020061463965,0.002805886168898651,0.0
0.0007220790761530005,0.0007166342892164738,0.0015635088230522422,0.0021066811910321528,0.0
0.0005789126737923523,0.0003496458058336506,3.194060987678953e-05,0.0004490433772317851,-2302.8649535047593
0.0007628536883785059,0.0003017354660440767,0.0005906781363877668,0.0020885217279551804,0.0
0.00023128870298024987,0.00022920061664076817,-0.0003873304712500831,0.0018750939696211494,-80.9795639006595
0.0009167379731854926,0.000250332721475918,0.001009516656383475,0.0023951244875506984,0.0
0.0009460401516612862,-3.5416945965579456e-05,0.00033788987157590755,0.0027570063560671786,0.0
0.0007518267545246983,5.916248849015725e-05,0.002608906847774123,0.002661638329067598,0.0
0.0007593037707950607,0.0005374553003975719,-0.000491258845919767,0.0011386095860974387,76.30697768249942
0.0009539017873980173,0.0009035807251979973,-0.00017730495831081377,0.002735075972280605,0.0
0.00096846669408348,1.9931928504433126e-05,0.0014395692394133476,0.0016660008160789426,0.0
0.0006634385521124413,0.0001462400274341653,0.0018817529958859809,0.0023074247524639607,0.0
0.0009579973388731229,0.00021359786062785516,0.0021477612688305457,0.002299729381333758,0.0
0.0008841156728765696,0.0007912801509588418,0.0001699908194409994,0.002850391554994823,0.0
0.0007660658937340605,0.000648707139215899,5.5264775117900384e-05,0.0011105378731202252,530.4966862528828
0.0007541320264249094,0.00048177473265387114,-0.00028610764002199234,0.002022285953957892,0.0
0.0009933730120684331,0.0003364451501773259,0.0008004038246921272,0.0009912568011751271,507.2621804052711
0.000633382972710947,-5.687908629961621e-05,0.001929054279878393,0.0019291372986960605,0.0
0.0005068777292505207,0.0003857686706637638,-0.00037028923145980547,0.002776325828166385,102.29061594060067
0.0008919488367865229,-6.433704038597904e-05,0.0012139165224953467,0.001829082702212275,0.0
0.0009653995247347735,0.0004259944985248734,6.137916068682265e-05,0.0014503384754948497,0.0
0.0009890538884460127,0.0009194639761527475,0.0007780061916976778,0.001120000742873335,530.4966862528828
0.0008366615574236086,0.0005860383628001464,-0.00028161793164025313,0.001749242094212105,0.0
0.0005309214643716803,0.00014796452297459987,0.0009652088989502094,0.0013573818600189603,532.0910480356049
0.0004286039614529474,0.0002708525970987116,0.0021076237120506804,0.0025348241680610436,0.0
0.000726285890110966,-3.239286376546944e-05,-8.194746506217515e-07,0.002754153272385796,0.0
0.0004016548894243335,-1.821622658548348e-05,0.0018373474687392406,0.00258452744556903,0.0
0.0009593940061801256,0.00032282189539847,0.00012617754579584504,0.00048342228569148355,-2423.0032769129575
7.879009827762151e-05,-9.053970913444514e-05,0.0005246096708877181,0.0012696447417423619,541.6632693480628
0.0006315358102781412,-1.046691770132264e-05,-0.0002927044421095138,0.0007153994855827047,-200.03031530621382
0.0006006796275684589,9.393001747664275e-05,0.00234910710554958,0.002627955006681708,0.0
0.0009130159938808286,0.0008260587446280827,0.0029173856246314557,0.0029423375487918446,0.0
0.00048167293471518524,0.0004404247079382373,-0.0003877491999202053,0.0012449311707283764,102.29061594060067
0.0008802416100544001,0.0006480388891400204,0.0003473641300749792,0.0023849019466613995,0.0
0.0008567088355404773,9.241545282199212e-05,0.00042370312465361446,0.0023411375522274305,0.0
0.0007159901806837203,4.9137006289443495e-05,0.0004392732235815607,0.00044404076410980227,-2398.2450026319057
0.0009427254838272415,0.0008781067812272233,0.0025377027280679694,0.0028501628335090602,0.0
0.0008710591669877773,-8.37229701093468e-06,-4.499101920832897e-05,0.001593457648934365,0.0
0.0009890191141048808,0.0005673196371981731,0.0021458524869849074,0.0022575393239710924,0.0
0.0006606175112703581,0.0002210069594532305,0.002193749693724516,0.002655201685167599,0.0
0.0004633248807317662,0.0002064087749902219,-0.0001880498002364354,-1.0733042154181479e-05,41.70758214264109
0.0006266265938789942,0.00037469751655983246,0.0009170951794031598,0.0013722650220495695,0.0
0.0007139868365110102,-1.9673263040686075e-05,0.0018847506565867378,0.0023960381947499606,0.0
0.00014201568878788242,-8.04059449771906e-05,-0.0004789926865570033,0.0024236485124379736,-211.57446426926532
0.0004360279881915389,1.8593323184089817e-05,0.0005975402521291257,0.0019983805362760935,0.0
0.00026070323537052856,0.00013285408695978075,-0.00046738665689983837,0.0011471094487892981,-41.87099916953839
0.0005612346979042319,0.0005556784521367538,-0.0004299999102804022,0.0022148956299078335,99.00811029082875
0.0005985617154744748,0.0005666090219377981,0.0017616875479310574,0.0025093241845987485,0.0
0.000974739947680014,0.00017339419476826039,-0.00017636559848289226,0.0022710732083828246,0.0
0.00042126385524725323,0.00033571042194229097,-0.0004167735531925818,8.18756052619454e-05,-91.15057597353152
0.00040005388327817465,-9.26841187610778e-05,0.0014448741451371723,0.002433343673844994,0.0
0.0009250354925494214,0.0003634316174240078,0.0004073740228951417,0.0006354088272777717,-2825.258746831844
0.0009541653583314735,0.00044533072229252757,-8.655878277726557e-05,0.0003137645525964427,-2986.8280180957827
0.0006601282702322096,8.080067756055478e-05,0.0008658845638610934,0.002134802926159958,0.0
0.0007840851158036148,0.00043435580093264295,0.0014094393427824946,0.0026897297076519206,0.0
0.0005677153498247027,-3.149505574824098e-05,0.00019418937113544821,0.0022824916030646774,0.0
0.000646871178576345,0.0005530978303969025,0.0009787876555185386,0.0018284152801867027,0.0
0.0009800157049242222,0.0007970142858320805,0.00042983867371439524,0.0005953624526891473,-2890.8335140494696
0.0004836612661558621,0.0003630650707903251,-0.00015441169632770976,0.0029967061864865094,0.0
0.0006116378071356178,0.0004122182738655453,-0.00022001521087728834,0.00028081878731519455,506.17193589846113
0.0008963691403121791,-3.509923411169815e-05,-0.0001385086421811007,0.00018827126173209178,220.63721273341255
0.0008521487268518074,0.0005905112564724247,0.0007202493650547571,0.0009169540136892754,467.3790758976736
0.000745152314320949,0.00039397182703162804,0.0016066063464765887,0.0018862687898441293,0.0
0.0003835670303824329,-6.681979202657518e-05,-5.758899996317728e-06,0.002991812150694866,0.0
0.0007546769428732323,-6.925034472819686e-05,2.482989924755389e-06,0.0022368052112247826,0.0
0.0006717538286473819,0.0005057804200176392,-0.00010055905233882274,0.0004930511071339146,-2773.4974649903984
0.0009001470703794232,0.0004482868369952491,0.0003225879381695874,0.00269605650132673,0.0
0.0004574256918141705,9.574963164649113e-05,-0.00011972901787629322,0.0016955385889327475,0.0
0.0004648961827627474,8.266751564764742e-05,-6.806306545325733e-06,0.0007613400327718769,-2858.240555712658
0.0009351860902642993,0.0008031852594410576,0.0022598885092992623,0.002395887169913358,0.0
0.00013097213832601002,-7.142596809729066e-05,0.0008518356745699722,0.0022001045848956246,0.0
0.000700640333722457,0.000519706622822653,-0.0002957876459511984,0.0005796935098897878,-333.43382687342483
0.0008232146111729255,0.0006281718440818599,0.0014820290247310633,0.0028548683181577016,0.0
0.0007755408138188418,0.00019392713405857526,-0.000181715428445768,0.0016953382407992068,0.0
0.00041059139240445694,-6.136061633458163e-05,0.00044440547220324985,0.002128367337798303,0.0
0.00043952120830366843,9.108061409051167e-05,-0.0001968904271731552,0.0013723014219966588,0.0
0.0009608595414675053,-6.116932535494021e-05,0.0020251515295503153,0.002824960568265288,0.0
0.0007400784524179541,0.0007133252063182677,-7.180134087424222e-05,0.000807767770463972,631.110564854921
0.0005645936066313023,0.0004959225473139317,0.0010265058498244884,0.002735464418369793,0.0
0.0004934828403222584,0.0003033576377539862,0.0002701456214913888,0.0012852167079513961,532.0910480356049
-2.302861212306217e-05,-3.330983771095604e-05,2.761576886760699e-05,0.0014026385521935668,-34.45830131804473
0.0009298568006247396,0.00022319123170282264,-0.0003387024089697761,-0.0002204332494406285,-36.087682139713166
0.0006399952718722052,0.0002699385720446638,0.0004512713357867267,0.0013805582700837373,0.0
0.0007843135149899242,0.0005055905960895552,0.0017883581916085045,0.002844315768137021,0.0
0.0006877915822785651,0.00045294428928514325,0.0008414435217287974,0.001269645178006175,479.5974590603729
0.0006164500404555359,0.0003790751148665894,0.0017951564477069197,0.0021889651209547963,0.0
0.0003198529385519706,5.988298118337131e-05,0.00028125285022244655,0.0019810039285864927,0.0
0.0006267676145700819,5.848181322978126e-05,0.00025197197503598254,0.0018953416937393256,0.0
0.0008064546777341545,-1.0913925205593882e-05,0.0009238947459915038,0.0023024215913778293,0.0
0.0009200763731272781,0.0008267949116470093,6.158187235649141e-05,0.00012757647615530465,-1585.1226083198221
0.0004478522239076804,0.00018017406189807565,0.0020093070112441364,0.0020749921652279007,0.0
0.000981957079956274,0.00017133725756994592,-1.2955608299762165e-06,0.000377639034381785,-2581.281033663517
0.0006845126028675143,0.0005577390037546381,0.0017401074803376267,0.00299831724148561,0.0
0.00040123711995141857,-6.890172658169276e-05,0.000632973761337158,0.0023267136786126416,0.0
0.0008384263419125314,0.0007419914550969211,2.384120739318675e-05,0.00274104929998585,0.0
0.0007740928805868829,0.0001181326457221225,0.001447847065151298,0.0018833766263920016,0.0
0.0006720743824635534,0.00025317546618536084,0.001879560373718846,0.0024362547667894923,0.0
0.0009776551337559473,5.420156708022127e-06,-0.0003715085561096616,0.0029023311731921995,57.87871808370631
0.0007415769146573885,0.0007317466890778792,0.00040390289285291295,0.002744951592876419,0.0
0.0009192866187483059,0.0005937389708506142,0.0002784821597536023,0.0008462845509831496,734.945765010471
0.0008565599719754203,0.0002031554084744466,0.0002968279613568025,0.002521194249851711,0.0
0.0002749790829577327,0.00018662080033997731,0.00042609527500753663,0.001235901359200136,571.7656347819411
0.0004607591748161715,0.00012212531858666025,0.0009347860374061428,0.002619941949659902,0.0
0.0006183862726064794,0.00013786044459238993,0.0009872070439451083,0.002745742143125679,0.0
0.0005667273019118531,0.0004310595863013292,0.002368431750269487,0.002953844205289293,0.0
0.000758066722532135,0.00041583555451557254,0.0021198080371741443,0.0029392057818703886,0.0
0.0004851888305372627,0.00047481177228352376,0.0018064905818024131,0.0019935737106021576,0.0
0.0009147549350798647,0.0007641281511717057,-0.00048815473442377595,0.00017849718217672944,-143.4211174233635
0.0002473469603991591,4.284668435365898e-06,-0.0004015732398308974,0.0015024912740290888,-68.31839219092467
0.0007454077395225925,-6.014306451581375e-05,-0.0003102422251407583,0.0022050266557492285,0.0
0.0005802160879106277,-6.36305212795361e-05,0.001326676182406019,0.002813313364079255,0.0
0.000997769474865939,0.0007434195973031793,0.0004249500575273361,0.0009520786858666086,467.3790758976736
3.82526429753018e-05,-3.193590953293417e-05,-0.00010056221823338894,0.0010579578378394363,269.65701756272637
0.0003206483341991568,2.407727911455419e-05,0.00036930198116518875,0.0008474079018251065,774.8288695180684
0.00021091153494422855,-3.382111907287287e-05,0.0012034657528541672,0.002310334890405796,0.0
0.00045177239451514687,1.4304361238219436e-07,0.0015288286233250542,0.0021454270642685155,0.0
0.00026980177146224024,-3.703673771393229e-05,0.00014312968226274888,0.0017997840147178415,0.0
0.0008709294140799539,-6.059692394571993e-05,0.00020720204550913615,0.002616548715132776,0.0
0.0009690720262575795,0.0004195478406730665,-0.00045775492652241364,0.00010785058391605564,-123.572272453312
0.0006702216392166286,7.050095616552083e-05,0.0021227267914367123,0.0024605710168308574,0.0
0.0005301826525086286,0.0005287798462705175,-0.0004458959543159356,0.0025430346350088545,70.19303347342142
0.000980966871705836,0.0005396043075296522,0.0009092636512852165,0.00267184035080693,0.0
0.00041545915125118814,8.861969046320514e-05,0.0009441514657429367,0.0012248852063284276,571.7656347819411
0.0008433551025682334,0.00036675677625458864,0.0007233604985180089,0.0023589797003903483,0.0
0.0006615436181939557,0.00024739220957354665,0.00035275446614614896,0.001585821676441843,0.0
0.0005771408619719009,0.0005661421346411642,0.0005781365191902311,0.0015822807131540212,0.0
3.4968931350212645e-05,3.316420629485756e-05,0.0009250367920987214,0.0016093225757281993,0.0
-2.0939878018822887e-05,-5.409387179887261e-05,0.0016676144153283082,0.0018772651719646967,-34.8286935792107
0.0008811532161354765,0.000799421121014071,0.00017167286730946903,0.00044530962950550324,-2456.7694123031392
0.0009029878348753829,0.0008571226210942551,0.0011191486803001308,0.002149760671575604,0.0
0.000192690093205822,-5.516927696465691e-05,0.0011185201094839686,0.0017139572061749602,0.0
0.0003222172063856153,-9.966755518045606e-05,0.0005674318450208089,0.001402832629085255,0.0
0.0005615907928045449,0.00030795385552572684,-4.198335023195785e-05,0.0029946501124403046,0.0
0.0007477543458404879,8.456003571834555e-05,-9.414873826380318e-05,0.001297649316844652,430.1943954589714
6.614611597164606e-05,3.427271750183681e-05,0.0009626316950523469,0.0023591286482302306,0.0
0.0008924580685908193,0.0006625837059137822,0.0026157613696978976,0.0028449816614371163,0.0
0.0009694091354701521,0.0004945090963686337,0.0008680886040952989,0.0017058536525000494,0.0
0.0009640647543334784,8.332206268382403e-05,0.001027050031634516,0.0013686066349199067,0.0
0.0004181691952955011,0.00012482036853709644,0.0012781473475465739,0.002537577897689775,0.0
0.0002600221281226672,0.00018989520588671668,0.0011109193601619794,0.0011380582584007365,571.7656347819411
0.00026647848674700203,0.00012879673156500208,0.000641327080928725,0.0023601749072984894,0.0
0.000422627822764456,0.00039190221420491337,0.0003002107415267318,0.0009873688989307102,507.2621804052711
0.0005394174898219382,0.0003147564160193517,0.0009692625803445227,0.0012409517510038248,571.7656347819411
2.7615034872835223e-05,-2.74802501730284e-05,0.0005612496257756696,0.002611471710720303,0.0
0.0008511899822586786,0.00045655239823125016,-0.0002718989482201736,0.0024626794520601156,0.0
0.0008160903590352169,0.0004992332263422229,0.001354368114235683,0.0022513506463755113,0.0
0.0007544567874935842,0.00021986088102107077,0.0003669022648210076,0.0013967380567353309,0.0
0.0008592231791766443,2.542981822502566e-05,0.0003783889576566635,0.0007089871097692366,-2833.3328575217424
0.0003337623649384317,-1.0946243672171226e-05,-0.00027661794897453605,0.0021461467048116494,-47.43777777777784
0.0004009290015746934,0.00017899750731036485,-0.0004974899108197404,0.0011301906216902133,-40.46233948883172
0.00020116104995659414,0.00012607612481340655,0.0006864491682140874,0.00287086689979127,0.0
0.0009125448903876253,0.00041396719399407683,-2.267034726595159e-05,0.00045355735044086767,-2509.5474621507783
0.0003288300473531709,-9.159708187654379e-05,0.0012154851697546132,0.0024679547925868686,0.0
0.0007458237252295676,-2.9104388881929613e-05,0.0013118922423613084,0.0013409199132671898,541.6632693480628
0.0006351250411524758,5.39243760496459e-05,3.4478504139516704e-08,0.0013462756480840242,532.0910480356049
0.0009488734408230055,0.0008977561361230096,0.0020549817896032647,0.0022135833295698825,0.0
0.0009467073236290025,-9.065423540356451e-05,-0.00047017488630825944,0.00268680317260281,67.20683074493292
0.0007261621524434287,0.0007176971436041774,0.00109904713488554,0.0029436312068690206,0.0
0.0005021383789681525,0.0003531758693678077,0.001373151279370811,0.0024145769660579536,0.0
0.0005574886387067462,0.00016643622054119734,0.0003293289619624119,0.0022050571042249254,0.0
0.0009203444312614018,0.00038399966741241493,0.0005211860984554947,0.002648320843745316,0.0
0.0009456079896056132,-9.713508827896278e-05,0.000560919036004769,0.0008922104864849748,517.0149385265493
0.0009459103558857767,0.0008372506540636253,9.139418360638006e-05,0.0028543213438250573,0.0
0.0007054192303802153,9.723803926314558e-06,0.0017431646272518448,0.0020139872824477237,0.0
0.0008799942839460427,0.000136760775082821,0.0009970264209297488,0.0019928444842905453,0.0
0.0007149099945816158,5.057310503654175e-05,0.0025531926424266272,0.002692704588735161,0.0
0.0003702907039243294,0.00027106268456792625,-0.00044782379943483937,0.0002875857622496791,-26.02539114794672
0.0009284385291702087,0.000907790026136111,0.00012995799320256185,0.00144388012709057,0.0
0.0009513885936478876,0.0007897710716552079,-0.00019645633494733074,0.0013771190431222696,0.0
0.00094014704059171,0.00019910677784532147,0.0007882381484644108,0.0029698696029531956,0.0
0.0004408372240752146,2.5358144145232043e-05,0.0001941964063874982,0.0025414400201321814,0.0
0.0009225821729719383,-8.937958911998416e-06,0.0016065147534640332,0.0027288017686318195,0.0
0.0005563543007012065,8.23636167825378e-05,0.0004557513053820427,0.002321694073138075,0.0
0.0006333533077612446,0.00046580504264667543,0.0013223970685366038,0.0016717231675318625,0.0
0.0003325343386491563,5.820014740915936e-05,0.0004209231428308331,0.0011152324851039937,571.7656347819411
0.0009730721180947705,0.0007923254713642181,0.0010309492478692646,0.0013671015066875974,0.0
0.00015701029952396115,2.168229097099609e-05,-0.0002779078086580174,-0.00023239815125155558,353.27311493478646
0.0008518891730156191,0.0007338717391714301,0.0009285269900683219,0.0020183372151521125,0.0
0.0006653796751017791,0.0003983084997235315,0.00011763740992873026,0.002237760734713977,0.0
0.0005102331558686007,-6.410389547230219e-05,0.00010116800925454462,0.002556395084519276,0.0
0.0008684298954724229,3.829562827101556e-05,0.0021670496454694677,0.002300296437340728,0.0
0.00048289595848497287,0.00036257833838561907,8.810065902965683e-05,0.0017856249896736642,0.0
0.0005035947154973139,0.0004946134371375918,0.0014471741061040935,0.001907430575760836,0.0
0.0005313153229904189,9.625824754522202e-05,-0.0004094251379563712,0.0028083474480438625,74.72487153263413
0.0008021540950485595,0.00017979978076977817,0.00020817830559642224,0.0022354444095431356,0.0
0.00011857625385012733,1.7039463316052106e-05,0.0017185948497848353,0.002459359004566774,0.0
0.00022605486402378167,7.820073131468054e-05,7.417800983304241e-05,0.002066890556147708,0.0
0.0009951345760546787,0.0006559222233350942,-0.0002820760207688126,0.00133809065718191,327.59241773089616
0.0007640587281241005,0.00028219905303428184,0.0010605907431681025,0.002550945412603019,0.0
0.0009687392497059715,0.0005294661791050986,0.0008327926552591368,0.0014331543984378524,0.0
0.000773572992309367,-6.594094255177321e-05,0.0016134232663669998,0.0024489219880093724,0.0
0.00042136157929420693,0.0003519886129317196,0.000790733466355474,0.0013927881930073348,0.0
0.000696387027247658,0.00022177798966004693,-0.0003255187473065568,0.0015968623958608902,15.045042439184162
0.0008366580259115607,1.2460310789202085e-05,-0.00031070743786443283,0.0012386978944474722,468.1077467398407
0.0006286762713783355,0.0005716443630478855,0.0007043029366840476,0.001400640193843425,0.0
0.000841198679323045,0.0004525399091474045,-0.00024136676887930654,0.0024295577604400934,0.0
0.0008092185103955485,0.00018361422159286132,0.0003088129851253461,0.0006341370463722664,-2918.8661834354184
0.000823726438298962,0.0002030617570902749,0.0021274842008413017,0.002156498124336946,0.0
0.0006946836513211183,0.000643150629343021,0.0001898049035390332,0.0017895965578694482,0.0
0.000848165952798035,0.0005374803235390599,-0.0003854366179087106,0.0007768090006577111,-761.6946715826915
0.0003179016526364202,-2.747687956850186e-05,1.9640604314578327e-05,0.0012010980766283584,581.8572782959689
0.00028685869345621907,-8.028233214372523e-05,0.0006525622755367629,0.0025200795973428815,0.0
0.0007223608512994567,0.0004233426225680042,0.000566789390104006,0.0007133020095863663,-2686.6570072188665
0.0005038991339374648,0.0002099294404368887,-0.00013257517870567343,0.002407607720806382,0.0
0.000941476280925853,0.0008365277156997803,0.00024290958365325336,0.0018435861022725137,0.0
0.0004391398722435206,0.00022510452485595037,0.0002929618477673394,0.0005804700071542317,-2238.2875483997072
0.000904617409821832,2.6492029446906898e-05,-0.0003854701644155433,-1.8934905847146552e-05,-1.0274194849617757
0.0003926930700433379,8.369606011841077e-05,0.0006279652967877429,0.0010828814399207343,571.7656347819411
0.0009446482876625977,0.0005771448768688572,0.0014258373329840632,0.0027024941060649343,0.0
0.0005389828787907984,-4.097678673348694e-05,0.0001822311532391652,0.0011290926462404285,581.8572782959689
0.0009456197395800753,0.0007415219516124258,0.0007992070433094666,0.0007997496039746346,707.5466046231065
0.0009623980064838355,0.000757317584530943,0.0013351023985956672,0.0014962426810348176,0.0
0.0009311380638369513,0.00011186137252256361,0.0015976269306214397,0.0019291845204800618,0.0
0.0009132022307005161,0.0005057443636589372,-3.87375910431323e-05,0.00181286359336107,0.0
0.00035905194467720754,0.00014101896093211662,0.0014712896961208638,0.002101297399562142,0.0
0.0006652742841949845,0.0001425551922042711,0.001718994159022865,0.0018831945142484727,0.0
0.000700264079375603,-7.408694227513458e-05,4.5355440937633914e-05,0.0008941589539895587,517.0149385265493
0.0009393134748545808,-1.8446896001519716e-05,0.000987515583021026,0.001989331148076314,0.0
0.000955182654167193,0.0003027405899826425,0.001868836215012323,0.002420042827022273,0.0
0.0009361784585388644,0.0004944555741953856,-0.00012162249453265446,0.0007307918773817208,-3104.3352956694066
0.00011046791920989072,-8.551155158063746e-05,-0.0004723902870850239,0.0010409256233422188,-256.7666259866598
0.0008484538471080293,0.00010223202985626388,-3.321490435286375e-05,0.0007888536618764906,-5285.998395186535
0.0007279882536473952,0.00015839386690651137,0.0010161773775339664,0.0023909252187931276,0.0
0.0003766619409578704,0.00029704660477298736,-3.133328070994355e-05,0.0013729786765188639,0.0
0.0004954819203867308,0.0003089631683696011,9.955368892211516e-05,0.0005490099478493811,-2300.532796730852
0.0005958023954406302,0.0002544876059055634,0.0017321557152036688,0.002894955921978186,0.0
0.00047099405958590123,0.00027308608623493284,0.0008987973804306974,0.002731996712183867,0.0
0.0007261315097183651,0.0004436849046603432,0.0005090996665783926,0.0017092507598397808,0.0
0.0003232897142257239,2.640876432067863e-05,0.00025058516273900847,0.0011521648077780075,571.7656347819411
0.0005135038650493022,0.00024275697829324042,0.0005122090131468508,0.0007306850763827443,-2953.1587288109395
0.0005245368098297974,0.00030032478106937875,0.0008113583362030338,0.0021130801976454554,0.0
0.0009718826483173116,0.0001434069602576368,0.00020914476762929983,0.0028566092160471606,0.0
0.00089267648322189,0.0008499799662083508,0.0022988613679596004,0.0029762064881354894,0.0
0.0006984585568269912,0.00028676237709408206,0.00011712185832513718,0.0011933662210379325,571.7656347819411
0.0003206483341991568,2.407727911455419e-05,0.00036930198116518875,0.0008474079018251065,774.8288695180684
0.00042064833419915677,2.407727911455419e-05,0.00036930198116518875,0.0008474079018251065,774.8288695180684
0.00042064833419915677,2.407727911455419e-05,0.00036930198116518875,0.0008474079018251065,774.8288695180684
0.00042064833419915677,0.0001240772791145542,0.00036930198116518875,0.0008474079018251065,774.8288695180684
0.00042064833419915677,0.0001240772791145542,0.00036930198116518875,0.0008474079018251065,774.8288695180684
0.00042064833419915677,0.0001240772791145542,0.00046930198116518874,0.0008474079018251065,774.8288695180684
0.00042064833419915677,0.0001240772791145542,0.00046930198116518874,0.0008474079018251065,774.8288695180684
0.00042064833419915677,0.0001240772791145542,0.00046930198116518874,0.0009474079018251065,507.2621804052711
0.00042064833419915677,0.0001240772791145542,0.00046930198116518874,0.0007474079018251064,-2926.618707699019
0.00042064833419915677,0.0001240772791145542,0.00046930198116518874,0.0008474079018251065,774.8288695180684
0.0005206483341991568,0.0001240772791145542,0.00046930198116518874,0.0008474079018251065,774.8288695180684
0.0005206483341991568,0.0001240772791145542,0.00046930198116518874,0.0008474079018251065,774.8288695180684
0.0005206483341991568,0.0002240772791145542,0.00046930198116518874,0.0008474079018251065,774.8288695180684
0.0005206483341991568,0.0002240772791145542,0.00046930198116518874,0.0008474079018251065,774.8288695180684
0.0005206483341991568,0.0002240772791145542,0.0005693019811651887,0.0008474079018251065,774.8288695180684
0.0005206483341991568,0.0002240772791145542,0.0005693019811651887,0.0008474079018251065,774.8288695180684
0.0005206483341991568,0.0002240772791145542,0.0005693019811651887,0.0009140745684917732,507.2621804052711
0.0005206483341991568,0.0002240772791145542,0.0005693019811651887,0.0007807412351584398,-4927.230618762577
0.0005206483341991568,0.0002240772791145542,0.0005693019811651887,0.0008474079018251065,774.8288695180684
0.0006206483341991569,0.0002240772791145542,0.0005693019811651887,0.0008474079018251065,774.8288695180684
0.0006206483341991569,0.0002240772791145542,0.0005693019811651887,0.0008474079018251065,774.8288695180684
0.0006206483341991569,0.0003240772791145542,0.0005693019811651887,0.0008474079018251065,774.8288695180684
0.0006206483341991569,0.0003240772791145542,0.0005693019811651887,0.0008474079018251065,774.8288695180684
0.0006206483341991569,0.0003240772791145542,0.0006693019811651888,0.0008474079018251065,774.8288695180684
0.0006206483341991569,0.0003240772791145542,0.0006693019811651888,0.0008474079018251065,774.8288695180684
0.0006206483341991569,0.0003240772791145542,0.0006693019811651888,0.0008918523462695508,507.2621804052711
0.0006206483341991569,0.0003240772791145542,0.0006693019811651888,0.0008029634573806621,774.8288695180684
0.0006206483341991569,0.0003240772791145542,0.0006693019811651888,0.0008029634573806621,774.8288695180684
0.0007206483341991569,0.0003240772791145542,0.0006693019811651888,0.0008029634573806621,774.8288695180684
0.0007206483341991569,0.0003240772791145542,0.0006693019811651888,0.0008029634573806621,774.8288695180684
0.0007206483341991569,0.0004240772791145542,0.0006693019811651888,0.0008029634573806621,774.8288695180684
0.0007206483341991569,0.0004240772791145542,0.0006693019811651888,0.0008029634573806621,774.8288695180684
0.0007206483341991569,0.0004240772791145542,0.0007693019811651888,0.0008029634573806621,774.8288695180684
0.0007206483341991569,0.0004240772791145542,0.0007693019811651888,0.0008029634573806621,774.8288695180684
0.0007206483341991569,0.0004240772791145542,0.0007693019811651888,0.0008474079018251065,774.8288695180684
0.0007206483341991569,0.0004240772791145542,0.0007693019811651888,0.0008474079018251065,774.8288695180684
0.000820648334199157,0.0004240772791145542,0.0007693019811651888,0.0008474079018251065,774.8288695180684
0.000820648334199157,0.0004240772791145542,0.0007693019811651888,0.0008474079018251065,774.8288695180684
0.000820648334199157,0.0005240772791145542,0.0007693019811651888,0.0008474079018251065,707.5466046231065
0.000820648334199157,0.00032407727911455426,0.0007693019811651888,0.0008474079018251065,774.8288695180684
0.000820648334199157,0.00032407727911455426,0.0007693019811651888,0.0008474079018251065,774.8288695180684
0.000820648334199157,0.00032407727911455426,0.0006693019811651888,0.0008474079018251065,774.8288695180684
0.000820648334199157,0.00032407727911455426,0.0006693019811651888,0.0008474079018251065,774.8288695180684
0.000820648334199157,0.00032407727911455426,0.0006693019811651888,0.0008918523462695508,507.2621804052711
0.000820648334199157,0.00032407727911455426,0.0006693019811651888,0.0008029634573806621,774.8288695180684
0.000820648334199157,0.00032407727911455426,0.0006693019811651888,0.0008029634573806621,774.8288695180684
0.000920648334199157,0.00032407727911455426,0.0006693019811651888,0.0008029634573806621,774.8288695180684
0.000920648334199157,0.00032407727911455426,0.0006693019811651888,0.0008029634573806621,774.8288695180684
0.000920648334199157,0.00042407727911455425,0.0006693019811651888,0.0008029634573806621,774.8288695180684
0.000920648334199157,0.00042407727911455425,0.0006693019811651888,0.0008029634573806621,774.8288695180684
0.000920648334199157,0.00042407727911455425,0.0007693019811651888,0.0008029634573806621,774.8288695180684
0.000920648334199157,0.00042407727911455425,0.0007693019811651888,0.0008029634573806621,774.8288695180684
0.000920648334199157,0.00042407727911455425,0.0007693019811651888,0.0008474079018251065,774.8288695180684
0.000920648334199157,0.00042407727911455425,0.0007693019811651888,0.0008474079018251065,774.8288695180684
0.001020648334199157,0.00042407727911455425,0.0007693019811651888,0.0008474079018251065,774.8288695180684
0.001020648334199157,0.00042407727911455425,0.0007693019811651888,0.0008474079018251065,774.8288695180684
0.001020648334199157,0.0005240772791145542,0.0007693019811651888,0.0008474079018251065,707.5466046231065
0.001020648334199157,0.00032407727911455426,0.0007693019811651888,0.0008474079018251065,774.8288695180684
0.001020648334199157,0.00032407727911455426,0.0007693019811651888,0.0008474079018251065,774.8288695180684
0.001020648334199157,0.00032407727911455426,0.0006693019811651888,0.0008474079018251065,774.8288695180684
0.001020648334199157,0.00032407727911455426,0.0006693019811651888,0.0008474079018251065,774.8288695180684
0.001020648334199157,0.00032407727911455426,0.0006693019811651888,0.0008918523462695508,507.2621804052711
0.001020648334199157,0.00032407727911455426,0.0006693019811651888,0.0008029634573806621,774.8288695180684
0.001020648334199157,0.00032407727911455426,0.0006693019811651888,0.0008029634573806621,774.8288695180684
0.001120648334199157,0.00032407727911455426,0.0006693019811651888,0.0008029634573806621,774.8288695180684
0.001120648334199157,0.00032407727911455426,0.0006693019811651888,0.0008029634573806621,774.8288695180684
0.001120648334199157,0.00042407727911455425,0.0006693019811651888,0.0008029634573806621,774.8288695180684
0.001120648334199157,0.00042407727911455425,0.0006693019811651888,0.0008029634573806621,774.8288695180684
0.001120648334199157,0.00042407727911455425,0.0007693019811651888,0.0008029634573806621,774.8288695180684
0.001120648334199157,0.00042407727911455425,0.0007693019811651888,0.0008029634573806621,774.8288695180684
0.001120648334199157,0.00042407727911455425,0.0007693019811651888,0.0008474079018251065,774.8288695180684
0.001120648334199157,0.00042407727911455425,0.0007693019811651888,0.0008474079018251065,774.8288695180684
0.001220648334199157,0.00042407727911455425,0.0007693019811651888,0.0008474079018251065,774.8288695180684
0.001220648334199157,0.00042407727911455425,0.0007693019811651888,0.0008474079018251065,774.8288695180684
0.001220648334199157,0.0005240772791145542,0.0007693019811651888,0.0008474079018251065,707.5466046231065
0.001220648334199157,0.00032407727911455426,0.0007693019811651888,0.0008474079018251065,774.8288695180684
0.001220648334199157,0.00032407727911455426,0.0007693019811651888,0.0008474079018251065,774.8288695180684
0.001220648334199157,0.00032407727911455426,0.0006693019811651888,0.0008474079018251065,774.8288695180684
0.001220648334199157,0.00032407727911455426,0.0006693019811651888,0.0008474079018251065,774.8288695180684
0.001220648334199157,0.00032407727911455426,0.0006693019811651888,0.0008918523462695508,507.2621804052711
0.001220648334199157,0.00032407727911455426,0.0006693019811651888,0.0008029634573806621,774.8288695180684
0.001220648334199157,0.00032407727911455426,0.0006693019811651888,0.0008029634573806621,774.8288695180684
0.001320648334199157,0.00032407727911455426,0.0006693019811651888,0.0008029634573806621,813.26104308618
0.001320648334199157,0.00032407727911455426,0.0006693019811651888,0.0008029634573806621,813.26104308618
0.001320648334199157,0.00042407727911455425,0.0006693019811651888,0.0008029634573806621,813.26104308618
0.001320648334199157,0.00042407727911455425,0.0006693019811651888,0.0008029634573806621,813.26104308618
0.001320648334199157,0.00042407727911455425,0.0007693019811651888,0.0008029634573806621,813.26104308618
0.001320648334199157,0.00042407727911455425,0.0007693019811651888,0.0008029634573806621,813.26104308618
0.001320648334199157,0.00042407727911455425,0.0007693019811651888,0.0008474079018251065,813.26104308618
0.001320648334199157,0.00042407727911455425,0.0007693019811651888,0.0008474079018251065,813.26104308618
0.0014206483341991571,0.00042407727911455425,0.0007693019811651888,0.0008474079018251065,641.3929754618437
0.001220648334199157,0.00042407727911455425,0.0007693019811651888,0.0008474079018251065,774.8288695180684
0.001320648334199157,0.00042407727911455425,0.0007693019811651888,0.0008474079018251065,813.26104308618
0.001320648334199157,0.0005240772791145542,0.0007693019811651888,0.0008474079018251065,744.5929341697574
0.001320648334199157,0.00032407727911455426,0.0007693019811651888,0.0008474079018251065,813.26104308618
0.001320648334199157,0.00032407727911455426,0.0007693019811651888,0.0008474079018251065,813.26104308618
0.001320648334199157,0.00032407727911455426,0.0006693019811651888,0.0008474079018251065,813.26104308618
0.001320648334199157,0.00032407727911455426,0.0006693019811651888,0.0008474079018251065,813.26104308618
0.001320648334199157,0.00032407727911455426,0.0006693019811651888,0.0008918523462695508,545.6943539733827
0.001320648334199157,0.00032407727911455426,0.0006693019811651888,0.0008029634573806621,813.26104308618
0.001320648334199157,0.00032407727911455426,0.0006693019811651888,0.0008029634573806621,813.26104308618
0.0013873150008658238,0.00032407727911455426,0.0006693019811651888,0.0008029634573806621,641.3929754618437
0.0012539816675324904,0.00032407727911455426,0.0006693019811651888,0.0008029634573806621,813.26104308618
0.0012539816675324904,0.00032407727911455426,0.0006693019811651888,0.0008029634573806621,813.26104308618
0.0012539816675324904,0.00042407727911455425,0.0006693019811651888,0.0008029634573806621,813.26104308618
0.0012539816675324904,0.00042407727911455425,0.0006693019811651888,0.0008029634573806621,813.26104308618
0.0012539816675324904,0.00042407727911455425,0.0007693019811651888,0.0008029634573806621,813.26104308618
0.0012539816675324904,0.00042407727911455425,0.0007693019811651888,0.0008029634573806621,813.26104308618
0.0012539816675324904,0.00042407727911455425,0.0007693019811651888,0.0008474079018251065,813.26104308618
0.0012539816675324904,0.00042407727911455425,0.0007693019811651888,0.0008474079018251065,813.26104308618
0.001320648334199157,0.00042407727911455425,0.0007693019811651888,0.0008474079018251065,813.26104308618
0.001320648334199157,0.00042407727911455425,0.0007693019811651888,0.0008474079018251065,813.26104308618
0.001320648334199157,0.0005240772791145542,0.0007693019811651888,0.0008474079018251065,744.5929341697574
0.001320648334199157,0.00032407727911455426,0.0007693019811651888,0.0008474079018251065,813.26104308618
0.001320648334199157,0.00032407727911455426,0.0007693019811651888,0.0008474079018251065,813.26104308618
0.001320648334199157,0.00032407727911455426,0.0006693019811651888,0.0008474079018251065,813.26104308618
0.001320648334199157,0.00032407727911455426,0.0006693019811651888,0.0008474079018251065,813.26104308618
0.001320648334199157,0.00032407727911455426,0.0006693019811651888,0.0008918523462695508,545.6943539733827
0.001320648334199157,0.00032407727911455426,0.0006693019811651888,0.0008029634573806621,813.26104308618
0.001320648334199157,0.00032407727911455426,0.0006693019811651888,0.0008029634573806621,813.26104308618
0.0013873150008658238,0.00032407727911455426,0.0006693019811651888,0.0008029634573806621,641.3929754618437
0.0012539816675324904,0.00032407727911455426,0.0006693019811651888,0.0008029634573806621,813.26104308618
0.0012539816675324904,0.00032407727911455426,0.0006693019811651888,0.0008029634573806621,813.26104308618
0.0012539816675324904,0.00042407727911455425,0.0006693019811651888,0.0008029634573806621,813.26104308618
0.0012539816675324904,0.00042407727911455425,0.0006693019811651888,0.0008029634573806621,813.26104308618
0.0012539816675324904,0.00042407727911455425,0.0007693019811651888,0.0008029634573806621,813.26104308618
0.0012539816675324904,0.00042407727911455425,0.0007693019811651888,0.0008029634573806621,813.26104308618
0.0012539816675324904,0.00042407727911455425,0.0007693019811651888,0.0008474079018251065,813.26104308618
0.0012539816675324904,0.00042407727911455425,0.0007693019811651888,0.0008474079018251065,813.26104308618
0.001320648334199157,0.00042407727911455425,0.0007693019811651888,0.0008474079018251065,813.26104308618
0.001320648334199157,0.00042407727911455425,0.0007693019811651888,0.0008474079018251065,813.26104308618
0.001320648334199157,0.0005240772791145542,0.0007693019811651888,0.0008474079018251065,744.5929341697574
0.001320648334199157,0.00032407727911455426,0.0007693019811651888,0.0008474079018251065,813.26104308618
0.001320648334199157,0.00032407727911455426,0.0007693019811651888,0.0008474079018251065,813.26104308618
0.001320648334199157,0.00032407727911455426,0.0006693019811651888,0.0008474079018251065,813.26104308618
0.001320648334199157,0.00032407727911455426,0.0006693019811651888,0.0008474079018251065,813.26104308618
0.001320648334199157,0.00032407727911455426,0.0006693019811651888,0.0008918523462695508,545.6943539733827
0.001320648334199157,0.00032407727911455426,0.0006693019811651888,0.0008029634573806621,813.26104308618
0.001320648334199157,0.00032407727911455426,0.0006693019811651888,0.0008029634573806621,813.26104308618
0.0013873150008658238,0.00032407727911455426,0.0006693019811651888,0.0008029634573806621,641.3929754618437
0.0012539816675324904,0.00032407727911455426,0.0006693019811651888,0.0008029634573806621,813.26104308618
0.0012539816675324904,0.00032407727911455426,0.0006693019811651888,0.0008029634573806621,813.26104308618
0.0012539816675324904,0.00042407727911455425,0.0006693019811651888,0.0008029634573806621,813.26104308618
0.0012539816675324904,0.00042407727911455425,0.0006693019811651888,0.0008029634573806621,813.26104308618
0.0012539816675324904,0.00042407727911455425,0.0007693019811651888,0.0008029634573806621,813.26104308618
0.0012539816675324904,0.00042407727911455425,0.0007693019811651888,0.0008029634573806621,813.26104308618
0.0012539816675324904,0.00042407727911455425,0.0007693019811651888,0.0008474079018251065,813.26104308618
0.0012539816675324904,0.00042407727911455425,0.0007693019811651888,0.0008474079018251065,813.26104308618
0.001320648334199157,0.00042407727911455425,0.0007693019811651888,0.0008474079018251065,813.26104308618
0.001320648334199157,0.00042407727911455425,0.0007693019811651888,0.0008474079018251065,813.26104308618
0.001320648334199157,0.0005240772791145542,0.0007693019811651888,0.0008474079018251065,744.5929341697574
0.001320648334199157,0.00032407727911455426,0.0007693019811651888,0.0008474079018251065,813.26104308618
0.001320648334199157,0.00032407727911455426,0.0007693019811651888,0.0008474079018251065,813.26104308618
0.001320648334199157,0.00032407727911455426,0.0006693019811651888,0.0008474079018251065,813.26104308618
0.001320648334199157,0.00032407727911455426,0.0006693019811651888,0.0008474079018251065,813.26104308618
0.001320648334199157,0.00032407727911455426,0.0006693019811651888,0.0008918523462695508,545.6943539733827
0.001320648334199157,0.00032407727911455426,0.0006693019811651888,0.0008029634573806621,813.26104308618
0.001320648334199157,0.00032407727911455426,0.0006693019811651888,0.0008029634573806621,813.26104308618
0.0013873150008658238,0.00032407727911455426,0.0006693019811651888,0.0008029634573806621,641.3929754618437
0.0012539816675324904,0.00032407727911455426,0.0006693019811651888,0.0008029634573806621,813.26104308618
0.0012539816675324904,0.00032407727911455426,0.0006693019811651888,0.0008029634573806621,813.26104308618
0.0012539816675324904,0.00042407727911455425,0.0006693019811651888,0.0008029634573806621,813.26104308618
0.0012539816675324904,0.00042407727911455425,0.0006693019811651888,0.0008029634573806621,813.26104308618
0.0012539816675324904,0.00042407727911455425,0.0007693019811651888,0.0008029634573806621,813.26104308618
0.0012539816675324904,0.00042407727911455425,0.0007693019811651888,0.0008029634573806621,813.26104308618
0.0012539816675324904,0.00042407727911455425,0.0007693019811651888,0.0008474079018251065,813.26104308618
0.0012539816675324904,0.00042407727911455425,0.0007693019811651888,0.0008474079018251065,813.26104308618
0.001320648334199157,0.00042407727911455425,0.0007693019811651888,0.0008474079018251065,813.26104308618
0.001320648334199157,0.00042407727911455425,0.0007693019811651888,0.0008474079018251065,813.26104308618
0.001320648334199157,0.0005240772791145542,0.0007693019811651888,0.0008474079018251065,744.5929341697574
0.001320648334199157,0.00032407727911455426,0.0007693019811651888,0.0008474079018251065,813.26104308618
0.001320648334199157,0.00032407727911455426,0.0007693019811651888,0.0008474079018251065,813.26104308618
0.001320648334199157,0.00032407727911455426,0.0006693019811651888,0.0008474079018251065,813.26104308618
0.001320648334199157,0.00032407727911455426,0.0006693019811651888,0.0008474079018251065,813.26104308618
0.001320648334199157,0.00032407727911455426,0.0006693019811651888,0.0008918523462695508,545.6943539733827
0.001320648334199157,0.00032407727911455426,0.0006693019811651888,0.0008029634573806621,813.26104308618
0.001320648334199157,0.00032407727911455426,0.0006693019811651888,0.0008029634573806621,813.26104308618
0.0013873150008658238,0.00032407727911455426,0.0006693019811651888,0.0008029634573806621,641.3929754618437
0.0012539816675324904,0.00032407727911455426,0.0006693019811651888,0.0008029634573806621,813.26104308618
0.0012539816675324904,0.00032407727911455426,0.0006693019811651888,0.0008029634573806621,813.26104308618
0.0012539816675324904,0.00042407727911455425,0.0006693019811651888,0.0008029634573806621,813.26104308618
0.0012539816675324904,0.00042407727911455425,0.0006693019811651888,0.0008029634573806621,813.26104308618
0.0012539816675324904,0.00042407727911455425,0.0007693019811651888,0.0008029634573806621,813.26104308618
0.0012539816675324904,0.00042407727911455425,0.0007693019811651888,0.0008029634573806621,813.26104308618
0.0012539816675324904,0.00042407727911455425,0.0007693019811651888,0.0008474079018251065,813.26104308618
0.0012539816675324904,0.00042407727911455425,0.0007693019811651888,0.0008474079018251065,813.26104308618
0.001320648334199157,0.00042407727911455425,0.0007693019811651888,0.0008474079018251065,813.26104308618
0.001320648334199157,0.00042407727911455425,0.0007693019811651888,0.0008474079018251065,813.26104308618
0.001320648334199157,0.0005240772791145542,0.0007693019811651888,0.0008474079018251065,744.5929341697574
0.001320648334199157,0.00032407727911455426,0.0007693019811651888,0.0008474079018251065,813.26104308618
0.001320648334199157,0.00032407727911455426,0.0007693019811651888,0.0008474079018251065,813.26104308618
0.001320648334199157,0.00032407727911455426,0.0006693019811651888,0.0008474079018251065,813.26104308618
0.001320648334199157,0.00032407727911455426,0.0006693019811651888,0.0008474079018251065,813.26104308618
0.001320648334199157,0.00032407727911455426,0.0006693019811651888,0.0008918523462695508,545.6943539733827
0.001320648334199157,0.00032407727911455426,0.0006693019811651888,0.0008029634573806621,813.26104308618
0.001320648334199157,0.00032407727911455426,0.0006693019811651888,0.0008029634573806621,813.26104308618
0.0013873150008658238,0.00032407727911455426,0.0006693019811651888,0.0008029634573806621,641.3929754618437
0.0012539816675324904,0.00032407727911455426,0.0006693019811651888,0.0008029634573806621,813.26104308618
0.0012539816675324904,0.00032407727911455426,0.0006693019811651888,0.0008029634573806621,813.26104308618
0.0012539816675324904,0.00042407727911455425,0.0006693019811651888,0.0008029634573806621,813.26104308618
0.0012539816675324904,0.00042407727911455425,0.0006693019811651888,0.0008029634573806621,813.26104308618
0.0012539816675324904,0.00042407727911455425,0.0007693019811651888,0.0008029634573806621,813.26104308618
0.0012539816675324904,0.00042407727911455425,0.0007693019811651888,0.0008029634573806621,813.26104308618
0.0012539816675324904,0.00042407727911455425,0.0007693019811651888,0.0008474079018251065,813.26104308618
0.0012539816675324904,0.00042407727911455425,0.0007693019811651888,0.0008474079018251065,813.26104308618
0.001320648334199157,0.00042407727911455425,0.0007693019811651888,0.0008474079018251065,813.26104308618
0.001320648334199157,0.00042407727911455425,0.0007693019811651888,0.0008474079018251065,813.26104308618
0.001320648334199157,0.0005240772791145542,0.0007693019811651888,0.0008474079018251065,744.5929341697574
0.001320648334199157,0.00032407727911455426,0.0007693019811651888,0.0008474079018251065,813.26104308618
0.001320648334199157,0.00032407727911455426,0.0007693019811651888,0.0008474079018251065,813.26104308618
0.001320648334199157,0.00032407727911455426,0.0006693019811651888,0.0008474079018251065,813.26104308618
0.001320648334199157,0.00032407727911455426,0.0006693019811651888,0.0008474079018251065,813.26104308618
0.001320648334199157,0.00032407727911455426,0.0006693019811651888,0.0008918523462695508,545.6943539733827
0.001320648334199157,0.00032407727911455426,0.0006693019811651888,0.0008029634573806621,813.26104308618
0.001320648334199157,0.00032407727911455426,0.0006693019811651888,0.0008029634573806621,813.26104308618
0.0013873150008658238,0.00032407727911455426,0.0006693019811651888,0.0008029634573806621,641.3929754618437
0.0012539816675324904,0.00032407727911455426,0.0006693019811651888,0.0008029634573806621,813.26104308618
0.0012539816675324904,0.00032407727911455426,0.0006693019811651888,0.0008029634573806621,813.26104308618
0.0012539816675324904,0.00042407727911455425,0.0006693019811651888,0.0008029634573806621,813.26104308618
0.0012539816675324904,0.00042407727911455425,0.0006693019811651888,0.0008029634573806621,813.26104308618
0.0012539816675324904,0.00042407727911455425,0.0007693019811651888,0.0008029634573806621,813.26104308618
0.0012539816675324904,0.00042407727911455425,0.0007693019811651888,0.0008029634573806621,813.26104308618
0.0012539816675324904,0.00042407727911455425,0.0007693019811651888,0.0008474079018251065,813.26104308618
0.0012539816675324904,0.00042407727911455425,0.0007693019811651888,0.0008474079018251065,813.26104308618
0.001320648334199157,0.00042407727911455425,0.0007693019811651888,0.0008474079018251065,813.26104308618
0.001320648334199157,0.00042407727911455425,0.0007693019811651888,0.0008474079018251065,813.26104308618
0.001320648334199157,0.0005240772791145542,0.0007693019811651888,0.0008474079018251065,744.5929341697574
0.001320648334199157,0.00032407727911455426,0.0007693019811651888,0.0008474079018251065,813.26104308618
0.001320648334199157,0.00032407727911455426,0.0007693019811651888,0.0008474079018251065,813.26104308618
0.001320648334199157,0.00032407727911455426,0.0006693019811651888,0.0008474079018251065,813.26104308618
0.001320648334199157,0.00032407727911455426,0.0006693019811651888,0.0008474079018251065,813.26104308618
0.001320648334199157,0.00032407727911455426,0.0006693019811651888,0.0008918523462695508,545.6943539733827
0.001320648334199157,0.00032407727911455426,0.0006693019811651888,0.0008029634573806621,813.26104308618
0.001320648334199157,0.00032407727911455426,0.0006693019811651888,0.0008029634573806621,813.26104308618
0.0013873150008658238,0.00032407727911455426,0.0006693019811651888,0.0008029634573806621,641.3929754618437
0.0012539816675324904,0.00032407727911455426,0.0006693019811651888,0.0008029634573806621,813.26104308618
0.0012539816675324904,0.00032407727911455426,0.0006693019811651888,0.0008029634573806621,813.26104308618
0.0012539816675324904,0.00042407727911455425,0.0006693019811651888,0.0008029634573806621,813.26104308618
0.0012539816675324904,0.00042407727911455425,0.0006693019811651888,0.0008029634573806621,813.26104308618
0.0012539816675324904,0.00042407727911455425,0.0007693019811651888,0.0008029634573806621,813.26104308618
0.0012539816675324904,0.00042407727911455425,0.0007693019811651888,0.0008029634573806621,813.26104308618
0.0012539816675324904,0.00042407727911455425,0.0007693019811651888,0.0008474079018251065,813.26104308618
0.0012539816675324904,0.00042407727911455425,0.0007693019811651888,0.0008474079018251065,813.26104308618
0.001320648334199157,0.00042407727911455425,0.0007693019811651888,0.0008474079018251065,813.26104308618
0.001320648334199157,0.00042407727911455425,0.0007693019811651888,0.0008474079018251065,813.26104308618
0.001320648334199157,0.0005240772791145542,0.0007693019811651888,0.0008474079018251065,744.5929341697574
0.001320648334199157,0.00032407727911455426,0.0007693019811651888,0.0008474079018251065,813.26104308618
0.001320648334199157,0.00032407727911455426,0.0007693019811651888,0.0008474079018251065,813.26104308618
0.001320648334199157,0.00032407727911455426,0.0006693019811651888,0.0008474079018251065,813.26104308618
0.001320648334199157,0.00032407727911455426,0.0006693019811651888,0.0008474079018251065,813.26104308618
0.001320648334199157,0.00032407727911455426,0.0006693019811651888,0.0008918523462695508,545.6943539733827
0.001320648334199157,0.00032407727911455426,0.0006693019811651888,0.0008029634573806621,813.26104308618
0.001320648334199157,0.00032407727911455426,0.0006693019811651888,0.0008029634573806621,813.26104308618
0.0013873150008658238,0.00032407727911455426,0.0006693019811651888,0.0008029634573806621,641.3929754618437
0.0012539816675324904,0.00032407727911455426,0.0006693019811651888,0.0008029634573806621,813.26104308618
0.0012539816675324904,0.00032407727911455426,0.0006693019811651888,0.0008029634573806621,813.26104308618
0.0012539816675324904,0.00042407727911455425,0.0006693019811651888,0.0008029634573806621,813.26104308618
0.0012539816675324904,0.00042407727911455425,0.0006693019811651888,0.0008029634573806621,813.26104308618
0.0012539816675324904,0.00042407727911455425,0.0007693019811651888,0.0008029634573806621,813.26104308618
0.0012539816675324904,0.00042407727911455425,0.0007693019811651888,0.0008029634573806621,813.26104308618
0.0012539816675324904,0.00042407727911455425,0.0007693019811651888,0.0008474079018251065,813.26104308618
0.0012539816675324904,0.00042407727911455425,0.0007693019811651888,0.0008474079018251065,813.26104308618
0.001320648334199157,0.00042407727911455425,0.0007693019811651888,0.0008474079018251065,813.26104308618
0.001320648334199157,0.00042407727911455425,0.0007693019811651888,0.0008474079018251065,813.26104308618
0.001320648334199157,0.0005240772791145542,0.0007693019811651888,0.0008474079018251065,744.5929341697574
0.001320648334199157,0.00032407727911455426,0.0007693019811651888,0.0008474079018251065,813.26104308618
0.001320648334199157,0.00032407727911455426,0.0007693019811651888,0.0008474079018251065,813.26104308618
0.001320648334199157,0.00032407727911455426,0.0006693019811651888,0.0008474079018251065,813.26104308618
0.001320648334199157,0.00032407727911455426,0.0006693019811651888,0.0008474079018251065,813.26104308618
0.001320648334199157,0.00032407727911455426,0.0006693019811651888,0.0008918523462695508,545.6943539733827
0.001320648334199157,0.00032407727911455426,0.0006693019811651888,0.0008029634573806621,813.26104308618
0.001320648334199157,0.00032407727911455426,0.0006693019811651888,0.0008029634573806621,813.26104308618
0.0013873150008658238,0.00032407727911455426,0.0006693019811651888,0.0008029634573806621,641.3929754618437
0.0012539816675324904,0.00032407727911455426,0.0006693019811651888,0.0008029634573806621,813.26104308618
0.0012539816675324904,0.00032407727911455426,0.0006693019811651888,0.0008029634573806621,813.26104308618
0.0012539816675324904,0.00042407727911455425,0.0006693019811651888,0.0008029634573806621,813.26104308618
0.0012539816675324904,0.00042407727911455425,0.0006693019811651888,0.0008029634573806621,813.26104308618
0.0012539816675324904,0.00042407727911455425,0.0007693019811651888,0.0008029634573806621,813.26104308618
0.0012539816675324904,0.00042407727911455425,0.0007693019811651888,0.0008029634573806621,813.26104308618
0.0012539816675324904,0.00042407727911455425,0.0007693019811651888,0.0008474079018251065,813.26104308618
0.0012539816675324904,0.00042407727911455425,0.0007693019811651888,0.0008474079018251065,813.26104308618
0.001320648334199157,0.00042407727911455425,0.0007693019811651888,0.0008474079018251065,813.26104308618
0.001320648334199157,0.00042407727911455425,0.0007693019811651888,0.0008474079018251065,813.26104308618
0.001320648334199157,0.0005240772791145542,0.0007693019811651888,0.0008474079018251065,744.5929341697574
0.001320648334199157,0.00032407727911455426,0.0007693019811651888,0.0008474079018251065,813.26104308618
0.001320648334199157,0.00032407727911455426,0.0007693019811651888,0.0008474079018251065,813.26104308618
0.001320648334199157,0.00032407727911455426,0.0006693019811651888,0.0008474079018251065,813.26104308618
0.001320648334199157,0.00032407727911455426,0.0006693019811651888,0.0008474079018251065,813.26104308618
0.001320648334199157,0.00032407727911455426,0.0006693019811651888,0.0008918523462695508,545.6943539733827
0.001320648334199157,0.00032407727911455426,0.0006693019811651888,0.0008029634573806621,813.26104308618
0.001320648334199157,0.00032407727911455426,0.0006693019811651888,0.0008029634573806621,813.26104308618
0.0013873150008658238,0.00032407727911455426,0.0006693019811651888,0.0008029634573806621,641.3929754618437
0.0012539816675324904,0.00032407727911455426,0.0006693019811651888,0.0008029634573806621,813.26104308618
0.0012539816675324904,0.00032407727911455426,0.0006693019811651888,0.0008029634573806621,813.26104308618
0.0012539816675324904,0.00042407727911455425,0.0006693019811651888,0.0008029634573806621,813.26104308618
0.0012539816675324904,0.00042407727911455425,0.0006693019811651888,0.0008029634573806621,813.26104308618
0.0012539816675324904,0.00042407727911455425,0.0007693019811651888,0.0008029634573806621,813.26104308618
0.0012539816675324904,0.00042407727911455425,0.0007693019811651888,0.0008029634573806621,813.26104308618
0.0012539816675324904,0.00042407727911455425,0.0007693019811651888,0.0008474079018251065,813.26104308618
0.0012539816675324904,0.00042407727911455425,0.0007693019811651888,0.0008474079018251065,813.26104308618
0.001320648334199157,0.00042407727911455425,0.0007693019811651888,0.0008474079018251065,813.26104308618
0.001320648334199157,0.00042407727911455425,0.0007693019811651888,0.0008474079018251065,813.26104308618
0.001320648334199157,0.0005240772791145542,0.0007693019811651888,0.0008474079018251065,744.5929341697574
0.001320648334199157,0.00032407727911455426,0.0007693019811651888,0.0008474079018251065,813.26104308618
0.001320648334199157,0.00032407727911455426,0.0007693019811651888,0.0008474079018251065,813.26104308618
0.001320648334199157,0.00032407727911455426,0.0006693019811651888,0.0008474079018251065,813.26104308618
0.001320648334199157,0.00032407727911455426,0.0006693019811651888,0.0008474079018251065,813.26104308618
0.001320648334199157,0.00032407727911455426,0.0006693019811651888,0.0008918523462695508,545.6943539733827
0.001320648334199157,0.00032407727911455426,0.0006693019811651888,0.0008029634573806621,813.26104308618
0.001320648334199157,0.00032407727911455426,0.0006693019811651888,0.0008029634573806621,813.26104308618
0.0013873150008658238,0.00032407727911455426,0.0006693019811651888,0.0008029634573806621,641.3929754618437
0.0012539816675324904,0.00032407727911455426,0.0006693019811651888,0.0008029634573806621,813.26104308618
0.0012539816675324904,0.00032407727911455426,0.0006693019811651888,0.0008029634573806621,813.26104308618
0.0012539816675324904,0.00042407727911455425,0.0006693019811651888,0.0008029634573806621,813.26104308618
0.0012539816675324904,0.00042407727911455425,0.0006693019811651888,0.0008029634573806621,813.26104308618
0.0012539816675324904,0.00042407727911455425,0.0007693019811651888,0.0008029634573806621,813.26104308618
0.0012539816675324904,0.00042407727911455425,0.0007693019811651888,0.0008029634573806621,813.26104308618
0.0012539816675324904,0.00042407727911455425,0.0007693019811651888,0.0008474079018251065,813.26104308618
0.0012539816675324904,0.00042407727911455425,0.0007693019811651888,0.0008474079018251065,813.26104308618
0.001320648334199157,0.00042407727911455425,0.0007693019811651888,0.0008474079018251065,813.26104308618
0.001320648334199157,0.00042407727911455425,0.0007693019811651888,0.0008474079018251065,813.26104308618
0.001320648334199157,0.0005240772791145542,0.0007693019811651888,0.0008474079018251065,744.5929341697574
0.001320648334199157,0.00032407727911455426,0.0007693019811651888,0.0008474079018251065,813.26104308618
0.001320648334199157,0.00032407727911455426,0.0007693019811651888,0.0008474079018251065,813.26104308618
0.001320648334199157,0.00032407727911455426,0.0006693019811651888,0.0008474079018251065,813.26104308618
0.001320648334199157,0.00032407727911455426,0.0006693019811651888,0.0008474079018251065,813.26104308618
0.001320648334199157,0.00032407727911455426,0.0006693019811651888,0.0008918523462695508,545.6943539733827
0.001320648334199157,0.00032407727911455426,0.0006693019811651888,0.0008029634573806621,813.26104308618
0.001320648334199157,0.00032407727911455426,0.0006693019811651888,0.0008029634573806621,813.26104308618
0.0013873150008658238,0.00032407727911455426,0.0006693019811651888,0.0008029634573806621,641.3929754618437
0.0012539816675324904,0.00032407727911455426,0.0006693019811651888,0.0008029634573806621,813.26104308618
0.0012539816675324904,0.00032407727911455426,0.0006693019811651888,0.0008029634573806621,813.26104308618
0.0012539816675324904,0.00042407727911455425,0.0006693019811651888,0.0008029634573806621,813.26104308618
0.0012539816675324904,0.00042407727911455425,0.0006693019811651888,0.0008029634573806621,813.26104308618
0.0012539816675324904,0.00042407727911455425,0.0007693019811651888,0.0008029634573806621,813.26104308618
0.0012539816675324904,0.00042407727911455425,0.0007693019811651888,0.0008029634573806621,813.26104308618
0.0012539816675324904,0.00042407727911455425,0.0007693019811651888,0.0008474079018251065,813.26104308618
0.0012539816675324904,0.00042407727911455425,0.0007693019811651888,0.0008474079018251065,813.26104308618
0.001320648334199157,0.00042407727911455425,0.0007693019811651888,0.0008474079018251065,813.26104308618
0.001320648334199157,0.00042407727911455425,0.0007693019811651888,0.0008474079018251065,813.26104308618
0.001320648334199157,0.0005240772791145542,0.0007693019811651888,0.0008474079018251065,744.5929341697574
0.001320648334199157,0.00032407727911455426,0.0007693019811651888,0.0008474079018251065,813.26104308618
0.001320648334199157,0.00032407727911455426,0.0007693019811651888,0.0008474079018251065,813.26104308618
0.001320648334199157,0.00032407727911455426,0.0006693019811651888,0.0008474079018251065,813.26104308618
0.001320648334199157,0.00032407727911455426,0.0006693019811651888,0.0008474079018251065,813.26104308618
0.001320648334199157,0.00032407727911455426,0.0006693019811651888,0.0008918523462695508,545.6943539733827
0.001320648334199157,0.00032407727911455426,0.0006693019811651888,0.0008029634573806621,813.26104308618
0.001320648334199157,0.00032407727911455426,0.0006693019811651888,0.0008029634573806621,813.26104308618
0.0013873150008658238,0.00032407727911455426,0.0006693019811651888,0.0008029634573806621,641.3929754618437
0.0012539816675324904,0.00032407727911455426,0.0006693019811651888,0.0008029634573806621,813.26104308618
0.0012539816675324904,0.00032407727911455426,0.0006693019811651888,0.0008029634573806621,813.26104308618
0.0012539816675324904,0.00042407727911455425,0.0006693019811651888,0.0008029634573806621,813.26104308618
0.0012539816675324904,0.00042407727911455425,0.0006693019811651888,0.0008029634573806621,813.26104308618
0.0012539816675324904,0.00042407727911455425,0.0007693019811651888,0.0008029634573806621,813.26104308618
0.0012539816675324904,0.00042407727911455425,0.0007693019811651888,0.0008029634573806621,813.26104308618
0.0012539816675324904,0.00042407727911455425,0.0007693019811651888,0.0008474079018251065,813.26104308618
0.0012539816675324904,0.00042407727911455425,0.0007693019811651888,0.0008474079018251065,813.26104308618
0.001320648334199157,0.00042407727911455425,0.0007693019811651888,0.0008474079018251065,813.26104308618
0.001320648334199157,0.00042407727911455425,0.0007693019811651888,0.0008474079018251065,813.26104308618
0.001320648334199157,0.0005240772791145542,0.0007693019811651888,0.0008474079018251065,744.5929341697574
0.001320648334199157,0.00032407727911455426,0.0007693019811651888,0.0008474079018251065,813.26104308618
0.001320648334199157,0.00032407727911455426,0.0007693019811651888,0.0008474079018251065,813.26104308618
0.001320648334199157,0.00032407727911455426,0.0006693019811651888,0.0008474079018251065,813.26104308618
0.001320648334199157,0.00032407727911455426,0.0006693019811651888,0.0008474079018251065,813.26104308618
0.001320648334199157,0.00032407727911455426,0.0006693019811651888,0.0008918523462695508,545.6943539733827
0.001320648334199157,0.00032407727911455426,0.0006693019811651888,0.0008029634573806621,813.26104308618
0.001320648334199157,0.00032407727911455426,0.0006693019811651888,0.0008029634573806621,813.26104308618
0.0013873150008658238,0.00032407727911455426,0.0006693019811651888,0.0008029634573806621,641.3929754618437
0.0012539816675324904,0.00032407727911455426,0.0006693019811651888,0.0008029634573806621,813.26104308618
0.0012539816675324904,0.00032407727911455426,0.0006693019811651888,0.0008029634573806621,813.26104308618
0.0012539816675324904,0.00042407727911455425,0.0006693019811651888,0.0008029634573806621,813.26104308618
0.0012539816675324904,0.00042407727911455425,0.0006693019811651888,0.0008029634573806621,813.26104308618
0.0012539816675324904,0.00042407727911455425,0.0007693019811651888,0.0008029634573806621,813.26104308618
0.0012539816675324904,0.00042407727911455425,0.0007693019811651888,0.0008029634573806621,813.26104308618
0.0012539816675324904,0.00042407727911455425,0.0007693019811651888,0.0008474079018251065,813.26104308618
0.0012539816675324904,0.00042407727911455425,0.0007693019811651888,0.0008474079018251065,813.26104308618
0.001320648334199157,0.00042407727911455425,0.0007693019811651888,0.0008474079018251065,813.26104308618
0.001320648334199157,0.00042407727911455425,0.0007693019811651888,0.0008474079018251065,813.26104308618
0.001320648334199157,0.0005240772791145542,0.0007693019811651888,0.0008474079018251065,744.5929341697574
0.001320648334199157,0.00032407727911455426,0.0007693019811651888,0.0008474079018251065,813.26104308618
0.001320648334199157,0.00032407727911455426,0.0007693019811651888,0.0008474079018251065,813.26104308618
0.001320648334199157,0.00032407727911455426,0.0006693019811651888,0.0008474079018251065,813.26104308618
0.001320648334199157,0.00032407727911455426,0.0006693019811651888,0.0008474079018251065,813.26104308618
0.001320648334199157,0.00032407727911455426,0.0006693019811651888,0.0008918523462695508,545.6943539733827
0.001320648334199157,0.00032407727911455426,0.0006693019811651888,0.0008029634573806621,813.26104308618
0.001320648334199157,0.00032407727911455426,0.0006693019811651888,0.0008029634573806621,813.26104308618
0.0013873150008658238,0.00032407727911455426,0.0006693019811651888,0.0008029634573806621,641.3929754618437
0.0012539816675324904,0.00032407727911455426,0.0006693019811651888,0.0008029634573806621,813.26104308618
0.0012539816675324904,0.00032407727911455426,0.0006693019811651888,0.0008029634573806621,813.26104308618
0.0012539816675324904,0.00042407727911455425,0.0006693019811651888,0.0008029634573806621,813.26104308618
0.0012539816675324904,0.00042407727911455425,0.0006693019811651888,0.0008029634573806621,813.26104308618
0.0012539816675324904,0.00042407727911455425,0.0007693019811651888,0.0008029634573806621,813.26104308618
0.0012539816675324904,0.00042407727911455425,0.0007693019811651888,0.0008029634573806621,813.26104308618
0.0012539816675324904,0.00042407727911455425,0.0007693019811651888,0.0008474079018251065,813.26104308618
0.0012539816675324904,0.00042407727911455425,0.0007693019811651888,0.0008474079018251065,813.26104308618
0.001320648334199157,0.00042407727911455425,0.0007693019811651888,0.0008474079018251065,813.26104308618
0.001320648334199157,0.00042407727911455425,0.0007693019811651888,0.0008474079018251065,813.26104308618
0.001320648334199157,0.0005240772791145542,0.0007693019811651888,0.0008474079018251065,744.5929341697574
0.001320648334199157,0.00032407727911455426,0.0007693019811651888,0.0008474079018251065,813.26104308618
0.001320648334199157,0.00032407727911455426,0.0007693019811651888,0.0008474079018251065,813.26104308618
0.001320648334199157,0.00032407727911455426,0.0006693019811651888,0.0008474079018251065,813.26104308618
0.001320648334199157,0.00032407727911455426,0.0006693019811651888,0.0008474079018251065,813.26104308618
0.001320648334199157,0.00032407727911455426,0.0006693019811651888,0.0008918523462695508,545.6943539733827
0.001320648334199157,0.00032407727911455426,0.0006693019811651888,0.0008029634573806621,813.26104308618
0.001320648334199157,0.00032407727911455426,0.0006693019811651888,0.0008029634573806621,813.26104308618
0.0013873150008658238,0.00032407727911455426,0.0006693019811651888,0.0008029634573806621,641.3929754618437
0.0012539816675324904,0.00032407727911455426,0.0006693019811651888,0.0008029634573806621,813.26104308618
0.0012539816675324904,0.00032407727911455426,0.0006693019811651888,0.0008029634573806621,813.26104308618
0.0012539816675324904,0.00042407727911455425,0.0006693019811651888,0.0008029634573806621,813.26104308618
0.0012539816675324904,0.00042407727911455425,0.0006693019811651888,0.0008029634573806621,813.26104308618
0.0012539816675324904,0.00042407727911455425,0.0007693019811651888,0.0008029634573806621,813.26104308618
0.0012539816675324904,0.00042407727911455425,0.0007693019811651888,0.0008029634573806621,813.26104308618
0.0012539816675324904,0.00042407727911455425,0.0007693019811651888,0.0008474079018251065,813.26104308618
0.0012539816675324904,0.00042407727911455425,0.0007693019811651888,0.0008474079018251065,813.26104308618
0.001320648334199157,0.00042407727911455425,0.0007693019811651888,0.0008474079018251065,813.26104308618
0.001320648334199157,0.00042407727911455425,0.0007693019811651888,0.0008474079018251065,813.26104308618
0.001320648334199157,0.0005240772791145542,0.0007693019811651888,0.0008474079018251065,744.5929341697574
0.001320648334199157,0.00032407727911455426,0.0007693019811651888,0.0008474079018251065,813.26104308618
0.001320648334199157,0.00032407727911455426,0.0007693019811651888,0.0008474079018251065,813.26104308618
0.001320648334199157,0.00032407727911455426,0.0006693019811651888,0.0008474079018251065,813.26104308618
0.001320648334199157,0.00032407727911455426,0.0006693019811651888,0.0008474079018251065,813.26104308618
0.001320648334199157,0.00032407727911455426,0.0006693019811651888,0.0008918523462695508,545.6943539733827
0.001320648334199157,0.00032407727911455426,0.0006693019811651888,0.0008029634573806621,813.26104308618
0.001320648334199157,0.00032407727911455426,0.0006693019811651888,0.0008029634573806621,813.26104308618
0.0013873150008658238,0.00032407727911455426,0.0006693019811651888,0.0008029634573806621,641.3929754618437
0.0012539816675324904,0.00032407727911455426,0.0006693019811651888,0.0008029634573806621,813.26104308618
0.0012539816675324904,0.00032407727911455426,0.0006693019811651888,0.0008029634573806621,813.26104308618
0.0012539816675324904,0.00042407727911455425,0.0006693019811651888,0.0008029634573806621,813.26104308618
0.0012539816675324904,0.00042407727911455425,0.0006693019811651888,0.0008029634573806621,813.26104308618
0.0012539816675324904,0.00042407727911455425,0.0007693019811651888,0.0008029634573806621,813.26104308618
0.0012539816675324904,0.00042407727911455425,0.0007693019811651888,0.0008029634573806621,813.26104308618
0.0012539816675324904,0.00042407727911455425,0.0007693019811651888,0.0008474079018251065,813.26104308618
0.0012539816675324904,0.00042407727911455425,0.0007693019811651888,0.0008474079018251065,813.26104308618
0.001320648334199157,0.00042407727911455425,0.0007693019811651888,0.0008474079018251065,813.26104308618
0.001320648334199157,0.00042407727911455425,0.0007693019811651888,0.0008474079018251065,813.26104308618
0.001320648334199157,0.0005240772791145542,0.0007693019811651888,0.0008474079018251065,744.5929341697574
0.001320648334199157,0.00032407727911455426,0.0007693019811651888,0.0008474079018251065,813.26104308618
0.001320648334199157,0.00032407727911455426,0.0007693019811651888,0.0008474079018251065,813.26104308618
0.001320648334199157,0.00032407727911455426,0.0006693019811651888,0.0008474079018251065,813.26104308618
0.001320648334199157,0.00032407727911455426,0.0006693019811651888,0.0008474079018251065,813.26104308618
0.001320648334199157,0.00032407727911455426,0.0006693019811651888,0.0008918523462695508,545.6943539733827
0.001320648334199157,0.00032407727911455426,0.0006693019811651888,0.0008029634573806621,813.26104308618
0.001320648334199157,0.00032407727911455426,0.0006693019811651888,0.0008029634573806621,813.26104308618
0.0013873150008658238,0.00032407727911455426,0.0006693019811651888,0.0008029634573806621,641.3929754618437
0.0012539816675324904,0.00032407727911455426,0.0006693019811651888,0.0008029634573806621,813.26104308618
0.0012539816675324904,0.00032407727911455426,0.0006693019811651888,0.0008029634573806621,813.26104308618
0.0012539816675324904,0.00042407727911455425,0.0006693019811651888,0.0008029634573806621,813.26104308618
0.0012539816675324904,0.00042407727911455425,0.0006693019811651888,0.0008029634573806621,813.26104308618
0.0012539816675324904,0.00042407727911455425,0.0007693019811651888,0.0008029634573806621,813.26104308618
0.0012539816675324904,0.00042407727911455425,0.0007693019811651888,0.0008029634573806621,813.26104308618
0.0012539816675324904,0.00042407727911455425,0.0007693019811651888,0.0008474079018251065,813.26104308618
0.0012539816675324904,0.00042407727911455425,0.0007693019811651888,0.0008474079018251065,813.26104308618
0.001320648334199157,0.00042407727911455425,0.0007693019811651888,0.0008474079018251065,813.26104308618
0.001320648334199157,0.00042407727911455425,0.0007693019811651888,0.0008474079018251065,813.26104308618
0.001320648334199157,0.0005240772791145542,0.0007693019811651888,0.0008474079018251065,744.5929341697574
0.001320648334199157,0.00032407727911455426,0.0007693019811651888,0.0008474079018251065,813.26104308618
0.001320648334199157,0.00032407727911455426,0.0007693019811651888,0.0008474079018251065,813.26104308618
0.001320648334199157,0.00032407727911455426,0.0006693019811651888,0.0008474079018251065,813.26104308618
0.001320648334199157,0.00032407727911455426,0.0006693019811651888,0.0008474079018251065,813.26104308618
0.001320648334199157,0.00032407727911455426,0.0006693019811651888,0.0008918523462695508,545.6943539733827
0.001320648334199157,0.00032407727911455426,0.0006693019811651888,0.0008029634573806621,813.26104308618
0.001320648334199157,0.00032407727911455426,0.0006693019811651888,0.0008029634573806621,813.26104308618
0.0013873150008658238,0.00032407727911455426,0.0006693019811651888,0.0008029634573806621,641.3929754618437
0.0012539816675324904,0.00032407727911455426,0.0006693019811651888,0.0008029634573806621,813.26104308618
0.0012539816675324904,0.00032407727911455426,0.0006693019811651888,0.0008029634573806621,813.26104308618
0.0012539816675324904,0.00042407727911455425,0.0006693019811651888,0.0008029634573806621,813.26104308618
0.0012539816675324904,0.00042407727911455425,0.0006693019811651888,0.0008029634573806621,813.26104308618
0.0012539816675324904,0.00042407727911455425,0.0007693019811651888,0.0008029634573806621,813.26104308618
0.0012539816675324904,0.00042407727911455425,0.0007693019811651888,0.0008029634573806621,813.26104308618
0.0012539816675324904,0.00042407727911455425,0.0007693019811651888,0.0008474079018251065,813.26104308618
0.0012539816675324904,0.00042407727911455425,0.0007693019811651888,0.0008474079018251065,813.26104308618
0.001320648334199157,0.00042407727911455425,0.0007693019811651888,0.0008474079018251065,813.26104308618
0.001320648334199157,0.00042407727911455425,0.0007693019811651888,0.0008474079018251065,813.26104308618
0.001320648334199157,0.0005240772791145542,0.0007693019811651888,0.0008474079018251065,744.5929341697574
0.001320648334199157,0.00032407727911455426,0.0007693019811651888,0.0008474079018251065,813.26104308618
0.001320648334199157,0.00032407727911455426,0.0007693019811651888,0.0008474079018251065,813.26104308618
0.001320648334199157,0.00032407727911455426,0.0006693019811651888,0.0008474079018251065,813.26104308618
0.001320648334199157,0.00032407727911455426,0.0006693019811651888,0.0008474079018251065,813.26104308618
0.001320648334199157,0.00032407727911455426,0.0006693019811651888,0.0008918523462695508,545.6943539733827
0.001320648334199157,0.00032407727911455426,0.0006693019811651888,0.0008029634573806621,813.26104308618
0.001320648334199157,0.00032407727911455426,0.0006693019811651888,0.0008029634573806621,813.26104308618
0.0013873150008658238,0.00032407727911455426,0.0006693019811651888,0.0008029634573806621,641.3929754618437
0.0012539816675324904,0.00032407727911455426,0.0006693019811651888,0.0008029634573806621,813.26104308618
0.0012539816675324904,0.00032407727911455426,0.0006693019811651888,0.0008029634573806621,813.26104308618
0.0012539816675324904,0.00042407727911455425,0.0006693019811651888,0.0008029634573806621,813.26104308618
0.0012539816675324904,0.00042407727911455425,0.0006693019811651888,0.0008029634573806621,813.26104308618
0.0012539816675324904,0.00042407727911455425,0.0007693019811651888,0.0008029634573806621,813.26104308618
0.0012539816675324904,0.00042407727911455425,0.0007693019811651888,0.0008029634573806621,813.26104308618
0.0012539816675324904,0.00042407727911455425,0.0007693019811651888,0.0008474079018251065,813.26104308618
0.0012539816675324904,0.00042407727911455425,0.0007693019811651888,0.0008474079018251065,813.26104308618
0.001320648334199157,0.00042407727911455425,0.0007693019811651888,0.0008474079018251065,813.26104308618
0.001320648334199157,0.00042407727911455425,0.0007693019811651888,0.0008474079018251065,813.26104308618
0.001320648334199157,0.0005240772791145542,0.0007693019811651888,0.0008474079018251065,744.5929341697574
0.001320648334199157,0.00032407727911455426,0.0007693019811651888,0.0008474079018251065,813.26104308618
0.001320648334199157,0.00032407727911455426,0.0007693019811651888,0.0008474079018251065,813.26104308618
0.001320648334199157,0.00032407727911455426,0.0006693019811651888,0.0008474079018251065,813.26104308618
0.001320648334199157,0.00032407727911455426,0.0006693019811651888,0.0008474079018251065,813.26104308618
0.001320648334199157,0.00032407727911455426,0.0006693019811651888,0.0008918523462695508,545.6943539733827
0.001320648334199157,0.00032407727911455426,0.0006693019811651888,0.0008029634573806621,813.26104308618
0.001320648334199157,0.00032407727911455426,0.0006693019811651888,0.0008029634573806621,813.26104308618
0.0013873150008658238,0.00032407727911455426,0.0006693019811651888,0.0008029634573806621,641.3929754618437
0.0012539816675324904,0.00032407727911455426,0.0006693019811651888,0.0008029634573806621,813.26104308618
