          data  min  max
10  1862.02002  NaN  NaN
          data  min  max
10  1862.02002  NaN  NaN
          data  min  max
10  1862.02002  NaN  NaN
          data  min  max
10  1862.02002  NaN  NaN
          data  min  max
10  1862.02002  NaN  NaN
          data  min  max
10  1862.02002  NaN  NaN
          data  min  max
10  1862.02002  NaN  NaN
          data  min  max
10  1862.02002  NaN  NaN
          data  min  max
10  1862.02002  NaN  NaN
          data  min  max
10  1862.02002  NaN  NaN
           data  min  max
10  1877.939941  NaN  NaN
           data  min  max
10  1864.719971  NaN  NaN
      data  min  max
10  1892.0  NaN  NaN
           data  min  max
10  1887.459961  NaN  NaN
           data  min  max
10  1884.579956  NaN  NaN
           data  min  max
10  1861.640015  NaN  NaN
           data          min  max
10  1828.339966  1828.339966  NaN
       data  min  max
10  1853.25  NaN  NaN
      data  min  max
10  1858.0  NaN  NaN
           data  min  max
10  1870.680054  NaN  NaN
           data  min  max
10  2008.719971  NaN  NaN
           data  min  max
10  2004.199951  NaN  NaN
           data  min  max
10  2049.669922  NaN  NaN
           data  min  max
10  2039.869995  NaN  NaN
          data  min  max
10  2050.22998  NaN  NaN
           data  min  max
10  2079.280029  NaN  NaN
           data  min  max
10  2133.909912  NaN  NaN
           data  min  max
10  2150.800049  NaN  NaN
      data  min  max
10  2160.0  NaN  NaN
           data  min  max
10  2149.870117  NaN  NaN
           data  min  max
10  2134.870117  NaN  NaN
           data  min  max
10  2155.669922  NaN  NaN
           data  min          max
10  2170.219971  NaN  2170.219971
           data  min  max
10  2153.100098  NaN  NaN
           data  min  max
10  2095.969971  NaN  NaN
           data  min  max
10  2009.290039  NaN  NaN
          data  min  max
10  1972.73999  NaN  NaN
           data  min  max
10  1979.589966  NaN  NaN
           data  min  max
10  1884.300049  NaN  NaN
       data  min  max
10  1883.75  NaN  NaN
           data  min  max
10  1953.949951  NaN  NaN
          data  min  max
10  1908.98999  NaN  NaN
           data  min  max
10  1975.829956  NaN  NaN
           data  min  max
10  1924.030029  NaN  NaN
           data  min  max
10  1901.089966  NaN  NaN
           data  min  max
10  1800.609985  NaN  NaN
           data  min  max
10  1891.819946  NaN  NaN
           data  min  max
10  1820.859985  NaN  NaN
           data          min  max
10  1676.609985  1676.609985  NaN
      data  min  max
10  1785.0  NaN  NaN
           data  min  max
10  1689.150024  NaN  NaN
           data  min  max
10  1807.839966  NaN  NaN
      data  min  max
10  1830.0  NaN  NaN
           data  min  max
10  1880.930054  NaN  NaN
           data  min  max
10  1846.089966  NaN  NaN
           data  min  max
10  1902.829956  NaN  NaN
           data  min  max
10  1940.099976  NaN  NaN
           data  min  max
10  1885.839966  NaN  NaN
          data  min  max
10  1955.48999  NaN  NaN
           data  min  max
10  1900.099976  NaN  NaN
           data  min  max
10  1963.949951  NaN  NaN
           data  min  max
10  1949.719971  NaN  NaN
           data  min  max
10  1907.699951  NaN  NaN
           data  min  max
10  1918.829956  NaN  NaN
           data  min  max
10  1906.589966  NaN  NaN
           data  min  max
10  1997.589966  NaN  NaN
           data  min  max
10  2011.599976  NaN  NaN
      data  min  max
10  2043.0  NaN  NaN
          data  min  max
10  2042.76001  NaN  NaN
           data  min  max
10  2168.870117  NaN  NaN
           data  min  max
10  2283.320068  NaN  NaN
           data  min  max
10  2307.679932  NaN  NaN
           data  min  max
10  2408.189941  NaN  NaN
      data  min  max
10  2375.0  NaN  NaN
           data  min  max
10  2393.610107  NaN  NaN
           data  min  max
10  2328.120117  NaN  NaN
          data  min  max
10  2363.48999  NaN  NaN
           data  min  max
10  2399.449951  NaN  NaN
           data  min  max
10  2410.219971  NaN  NaN
      data  min  max
10  2376.0  NaN  NaN
           data  min  max
10  2314.080078  NaN  NaN
           data  min  max
10  2372.709961  NaN  NaN
      data  min     max
10  2474.0  NaN  2474.0
           data          min  max
10  2286.040039  2286.040039  NaN
          data  min  max
10  2315.98999  NaN  NaN
           data  min  max
10  2317.800049  NaN  NaN
          data  min  max
10  2351.26001  NaN  NaN
           data  min  max
10  2367.610107  NaN  NaN
           data  min  max
10  2379.610107  NaN  NaN
      data  min  max
10  2409.0  NaN  NaN
           data  min  max
10  2356.949951  NaN  NaN
           data  min  max
10  2367.919922  NaN  NaN
           data  min  max
10  2388.850098  NaN  NaN
           data  min  max
10  2409.780029  NaN  NaN
          data  min  max
10  2426.26001  NaN  NaN
           data  min  max
10  2449.330078  NaN  NaN
           data  min          max
10  2497.939941  NaN  2497.939941
          data  min  max
10  2446.73999  NaN  NaN
           data  min  max
10  2436.879883  NaN  NaN
           data  min  max
10  2421.860107  NaN  NaN
           data  min  max
10  2410.389893  NaN  NaN
           data  min  max
10  2401.100098  NaN  NaN
           data  min  max
10  2442.370117  NaN  NaN
           data  min  max
10  2471.040039  NaN  NaN
           data  min  max
10  2472.409912  NaN  NaN
           data  min  max
10  2478.399902  NaN  NaN
           data  min  max
10  2460.600098  NaN  NaN
      data  min  max
10  2483.0  NaN  NaN
           data  min  max
10  2524.060059  NaN  NaN
           data  min  max
10  2600.860107  NaN  NaN
           data  min  max
10  2647.449951  NaN  NaN
           data  min  max
10  2557.959961  NaN  NaN
          data  min  max
10  2545.02002  NaN  NaN
           data  min  max
10  2572.679932  NaN  NaN
          data  min  max
10  2615.27002  NaN  NaN
          data  min  max
10  2640.97998  NaN  NaN
          data  min  max
10  2653.97998  NaN  NaN
          data  min  max
10  2675.01001  NaN  NaN
           data  min  max
10  2713.820068  NaN  NaN
           data  min  max
10  2764.409912  NaN  NaN
           data  min  max
10  2734.399902  NaN  NaN
           data  min  max
10  2754.580078  NaN  NaN
           data  min  max
10  2692.870117  NaN  NaN
           data  min  max
10  2680.379883  NaN  NaN
           data  min  max
10  2758.820068  NaN  NaN
           data  min  max
10  2878.699951  NaN  NaN
           data  min  max
10  2890.300049  NaN  NaN
           data  min  max
10  3057.040039  NaN  NaN
           data  min  max
10  3000.120117  NaN  NaN
           data  min  max
10  3081.110107  NaN  NaN
           data  min  max
10  3182.629883  NaN  NaN
      data  min     max
10  3200.0  NaN  3200.0
      data  min  max
10  3104.0  NaN  NaN
      data  min  max
10  3084.0  NaN  NaN
           data  min  max
10  3008.870117  NaN  NaN
           data  min  max
10  2999.899902  NaN  NaN
           data  min  max
10  2961.969971  NaN  NaN
           data  min  max
10  3196.840088  NaN  NaN
           data  min  max
10  3138.290039  NaN  NaN
           data  min  max
10  3099.909912  NaN  NaN
           data  min  max
10  2986.550049  NaN  NaN
           data  min  max
10  3008.909912  NaN  NaN
           data  min  max
10  3055.209961  NaN  NaN
           data  min  max
10  3000.330078  NaN  NaN
           data  min  max
10  3033.530029  NaN  NaN
           data  min  max
10  3051.879883  NaN  NaN
           data  min  max
10  3164.679932  NaN  NaN
           data  min  max
10  3111.889893  NaN  NaN
           data  min  max
10  3138.830078  NaN  NaN
           data  min  max
10  3205.030029  NaN  NaN
      data  min  max
10  3225.0  NaN  NaN
           data  min  max
10  3167.459961  NaN  NaN
           data  min  max
10  3148.159912  NaN  NaN
           data  min  max
10  3080.669922  NaN  NaN
          data  min  max
10  3162.23999  NaN  NaN
          data  min  max
10  3161.02002  NaN  NaN
          data  min  max
10  3148.02002  NaN  NaN
           data  min  max
10  3182.409912  NaN  NaN
          data  min  max
10  3312.48999  NaN  NaN
          data  min  max
10  3260.47998  NaN  NaN
           data  min  max
10  3297.370117  NaN  NaN
           data  min  max
10  3284.719971  NaN  NaN
           data  min  max
10  3307.459961  NaN  NaN
          data  min  max
10  3346.48999  NaN  NaN
           data  min  max
10  3441.850098  NaN  NaN
      data  min  max
10  3400.0  NaN  NaN
           data  min  max
10  3401.800049  NaN  NaN
           data  min  max
10  3450.959961  NaN  NaN
           data  min  max
10  3499.120117  NaN  NaN
           data  min          max
10  3531.449951  NaN  3531.449951
      data  min  max
10  3368.0  NaN  NaN
           data  min  max
10  3294.620117  NaN  NaN
           data  min  max
10  3149.840088  NaN  NaN
           data  min  max
10  3268.610107  NaN  NaN
           data  min  max
10  3175.110107  NaN  NaN
           data  min  max
10  3116.219971  NaN  NaN
           data  min  max
10  3102.969971  NaN  NaN
           data  min  max
10  3156.129883  NaN  NaN
           data  min  max
10  3078.100098  NaN  NaN
          data  min  max
10  3008.72998  NaN  NaN
           data          min  max
10  2954.909912  2954.909912  NaN
           data  min  max
10  2960.469971  NaN  NaN
          data  min  max
10  3128.98999  NaN  NaN
           data  min  max
10  2999.860107  NaN  NaN
           data  min  max
10  3019.790039  NaN  NaN
           data  min  max
10  3095.129883  NaN  NaN
           data  min  max
10  3174.050049  NaN  NaN
           data  min  max
10  3144.879883  NaN  NaN
          data  min  max
10  3148.72998  NaN  NaN
          data  min  max
10  3221.26001  NaN  NaN
      data  min  max
10  3125.0  NaN  NaN
           data  min  max
10  3199.199951  NaN  NaN
           data  min  max
10  3099.959961  NaN  NaN
           data  min  max
10  3195.689941  NaN  NaN
           data  min  max
10  3190.550049  NaN  NaN
           data  min  max
10  3286.649902  NaN  NaN
           data  min  max
10  3442.929932  NaN  NaN
           data  min          max
10  3443.629883  NaN  3443.629883
           data  min  max
10  3363.709961  NaN  NaN
           data  min  max
10  3338.649902  NaN  NaN
           data  min  max
10  3272.709961  NaN  NaN
           data  min  max
10  3207.209961  NaN  NaN
          data  min  max
10  3217.01001  NaN  NaN
           data  min  max
10  3184.939941  NaN  NaN
           data  min  max
10  3176.399902  NaN  NaN
           data  min  max
10  3204.399902  NaN  NaN
           data  min  max
10  3207.040039  NaN  NaN
           data  min  max
10  3286.330078  NaN  NaN
           data  min  max
10  3162.780029  NaN  NaN
          data  min  max
10  3211.01001  NaN  NaN
           data  min  max
10  3036.149902  NaN  NaN
          data         min  max
10  3004.47998  3004.47998  NaN
           data  min  max
10  3048.409912  NaN  NaN
           data  min  max
10  3241.159912  NaN  NaN
      data  min     max
10  3322.0  NaN  3322.0
           data  min  max
10  3311.370117  NaN  NaN
          data  min  max
10  3143.73999  NaN  NaN
          data  min  max
10  3035.02002  NaN  NaN
           data  min  max
10  3137.389893  NaN  NaN
           data  min  max
10  3110.280029  NaN  NaN
           data  min  max
10  3128.810059  NaN  NaN
           data  min  max
10  3131.060059  NaN  NaN
           data  min  max
10  3135.659912  NaN  NaN
           data  min  max
10  3105.459961  NaN  NaN
          data  min  max
10  3117.02002  NaN  NaN
           data  min  max
10  3099.399902  NaN  NaN
           data  min  max
10  3098.389893  NaN  NaN
           data  min  max
10  3118.060059  NaN  NaN
           data  min  max
10  3185.070068  NaN  NaN
           data  min  max
10  3195.340088  NaN  NaN
           data  min  max
10  3168.040039  NaN  NaN
           data  min          max
10  3220.080078  NaN  3220.080078
           data  min  max
10  3203.530029  NaN  NaN
          data  min  max
10  3186.72998  NaN  NaN
           data  min  max
10  3162.580078  NaN  NaN
      data  min  max
10  3158.0  NaN  NaN
           data  min  max
10  3177.290039  NaN  NaN
           data  min  max
10  3104.199951  NaN  NaN
          data         min  max
10  3101.48999  3101.48999  NaN
           data  min  max
10  3116.419922  NaN  NaN
           data  min  max
10  3156.969971  NaN  NaN
           data  min  max
10  3165.120117  NaN  NaN
           data  min  max
10  3240.959961  NaN  NaN
           data  min  max
10  3236.080078  NaN  NaN
           data  min  max
10  3201.649902  NaN  NaN
           data  min  max
10  3206.179932  NaN  NaN
          data  min  max
10  3206.52002  NaN  NaN
          data  min  max
10  3185.27002  NaN  NaN
           data  min  max
10  3172.689941  NaN  NaN
           data  min  max
10  3283.959961  NaN  NaN
      data  min     max
10  3322.0  NaN  3322.0
           data  min  max
10  3285.850098  NaN  NaN
           data  min  max
10  3256.929932  NaN  NaN
           data  min  max
10  3186.629883  NaN  NaN
          data  min  max
10  3218.51001  NaN  NaN
           data  min  max
10  3138.379883  NaN  NaN
           data  min  max
10  3162.159912  NaN  NaN
           data  min  max
10  3182.699951  NaN  NaN
           data  min  max
10  3114.209961  NaN  NaN
           data  min  max
10  3120.830078  NaN  NaN
           data  min  max
10  3165.889893  NaN  NaN
           data  min  max
10  3127.469971  NaN  NaN
       data      min  max
10  3104.25  3104.25  NaN
          data  min  max
10  3120.76001  NaN  NaN
           data  min  max
10  3263.379883  NaN  NaN
          data  min  max
10  3306.98999  NaN  NaN
          data  min  max
10  3292.22998  NaN  NaN
      data  min  max
10  3294.0  NaN  NaN
           data  min  max
10  3326.129883  NaN  NaN
           data  min  max
10  3232.580078  NaN  NaN
           data  min  max
10  3237.620117  NaN  NaN
           data  min  max
10  3206.199951  NaN  NaN
           data  min  max
10  3342.879883  NaN  NaN
      data  min     max
10  3380.0  NaN  3380.0
           data  min  max
10  3312.530029  NaN  NaN
      data  min  max
10  3331.0  NaN  NaN
           data  min  max
10  3352.149902  NaN  NaN
           data  min  max
10  3322.939941  NaN  NaN
      data  min  max
10  3305.0  NaN  NaN
           data  min  max
10  3286.580078  NaN  NaN
           data  min  max
10  3262.129883  NaN  NaN
           data  min  max
10  3277.709961  NaN  NaN
           data  min  max
10  3268.949951  NaN  NaN
           data  min  max
10  3308.639893  NaN  NaN
          data  min  max
10  3328.22998  NaN  NaN
           data  min  max
10  3249.899902  NaN  NaN
          data  min  max
10  3180.73999  NaN  NaN
      data  min  max
10  3194.5  NaN  NaN
           data  min  max
10  3159.530029  NaN  NaN
           data  min  max
10  3057.159912  NaN  NaN
           data  min  max
10  3092.929932  NaN  NaN
           data  min  max
10  3146.139893  NaN  NaN
           data  min  max
10  3094.530029  NaN  NaN
      data  min  max
10  3005.0  NaN  NaN
           data  min  max
10  2977.570068  NaN  NaN
           data  min  max
10  3000.459961  NaN  NaN
           data          min  max
10  2951.949951  2951.949951  NaN
           data  min  max
10  3062.850098  NaN  NaN
           data  min  max
10  3057.639893  NaN  NaN
           data  min  max
10  3113.590088  NaN  NaN
          data  min  max
10  3089.48999  NaN  NaN
           data  min  max
10  3081.679932  NaN  NaN
           data  min  max
10  3091.860107  NaN  NaN
          data  min  max
10  3135.72998  NaN  NaN
          data  min  max
10  3027.98999  NaN  NaN
           data  min  max
10  3074.959961  NaN  NaN
           data  min  max
10  3110.870117  NaN  NaN
      data  min  max
10  3137.5  NaN  NaN
           data  min  max
10  3087.070068  NaN  NaN
          data  min  max
10  3046.26001  NaN  NaN
           data  min  max
10  3052.030029  NaN  NaN
          data  min  max
10  3075.72998  NaN  NaN
           data  min  max
10  3055.290039  NaN  NaN
           data  min  max
10  3094.080078  NaN  NaN
      data  min  max
10  3161.0  NaN  NaN
          data  min  max
10  3226.72998  NaN  NaN
           data  min  max
10  3223.820068  NaN  NaN
           data  min  max
10  3279.389893  NaN  NaN
           data  min  max
10  3299.300049  NaN  NaN
           data  min  max
10  3372.199951  NaN  NaN
           data  min  max
10  3379.389893  NaN  NaN
      data  min  max
10  3400.0  NaN  NaN
      data  min  max
10  3333.0  NaN  NaN
           data  min  max
10  3379.090088  NaN  NaN
           data  min  max
10  3399.439941  NaN  NaN
          data  min  max
10  3372.01001  NaN  NaN
           data  min  max
10  3334.689941  NaN  NaN
          data  min  max
10  3362.02002  NaN  NaN
           data  min  max
10  3309.040039  NaN  NaN
           data  min  max
10  3340.879883  NaN  NaN
      data  min  max
10  3409.0  NaN  NaN
           data  min  max
10  3417.429932  NaN  NaN
      data  min  max
10  3458.5  NaN  NaN
           data  min          max
10  3471.310059  NaN  3471.310059
