,symbol,interval,open_time,open,high,low,close,volume,turnover,bb_upper,bb_middle,bb_lower,RSI,MOM,ATR
2021-08-30 10:00:00,BTCUSD,30,1630281600,48815,48901.5,48585,48665,144766215,2968.697768310046,,,,,,
2021-08-30 10:30:00,BTCUSD,30,1630283400,48665,48687,48362,48424.5,106297751,2190.5910228299904,,,,,,
2021-08-30 11:00:00,BTCUSD,30,1630285200,48424.5,48620,48407.5,48619.5,75250767,1551.200614480024,,,,,,
2021-08-30 11:30:00,BTCUSD,30,1630287000,48619.5,48730,48542.5,48549,70956273,1459.034318290036,,,,,,
2021-08-30 12:00:00,BTCUSD,30,1630288800,48549,48690,48510,48649.5,65586097,1349.7464792799956,,,,,,
2021-08-30 12:30:00,BTCUSD,30,1630290600,48649.5,48650,48450,48450.5,35532902,732.1956215999958,,,,,,
2021-08-30 13:00:00,BTCUSD,30,1630292400,48450.5,48475.5,48057,48070.5,142970777,2963.5788782300237,,,,,,
2021-08-30 13:30:00,BTCUSD,30,1630294200,48070.5,48144,47800,47968.5,235130541,4898.770963890349,,,,,,
2021-08-30 14:00:00,BTCUSD,30,1630296000,47968.5,48142,47870,47942.5,83590689,1741.4132285999951,,,,,,
2021-08-30 14:30:00,BTCUSD,30,1630297800,47942.5,47945,47777,47900.5,114796067,2398.7095192199813,,,,,,
2021-08-30 15:00:00,BTCUSD,30,1630299600,47900.5,48044,47801,47957,59417960,1239.4541593100148,,,,,,
2021-08-30 15:30:00,BTCUSD,30,1630301400,47957,48030,47923,48029.5,37747424,786.6317827400156,,,,,,
2021-08-30 16:00:00,BTCUSD,30,1630303200,48029.5,48030,47861,47861,37499948,782.285558850023,,,,,,
2021-08-30 16:30:00,BTCUSD,30,1630305000,47861,48111,47600,47987.5,182231881,3805.459291159919,,,,,,
2021-08-30 17:00:00,BTCUSD,30,1630306800,47987.5,48019,47790,48019,66180068,1381.7399635999814,,,,32.164549972390944,-646.0,254.75
2021-08-30 17:30:00,BTCUSD,30,1630308600,48019,48019,47900,47965,35343545,737.0479666000235,,,,31.16383390262974,-459.5,245.05357142857142
2021-08-30 18:00:00,BTCUSD,30,1630310400,47965,48073.5,47902,48073.5,42313826,881.9418382300365,,,,35.50569029491062,-546.0,239.7997448979592
2021-08-30 18:30:00,BTCUSD,30,1630312200,48073.5,48233,48014.5,48118,73654836,1529.8653564700203,,,,37.25377056254282,-431.0,238.27833454810497
2021-08-30 19:00:00,BTCUSD,30,1630314000,48118,48143,47968,48025.5,50510390,1051.3750403200181,,,,35.12271646464205,-624.0,233.7584535089546
2021-08-30 19:30:00,BTCUSD,30,1630315800,48025.5,48076.5,47892.5,47963.5,40882752,851.8078287800056,48704.552042918105,48161.975,47619.39795708189,33.729961470729336,-487.0,230.204278258315
2021-08-30 20:00:00,BTCUSD,30,1630317600,47963.5,47964,47823,47920.5,41344217,863.0778200200023,48624.65224044307,48124.75,47624.84775955693,32.75970172233835,-150.0,223.83254409700677
2021-08-30 20:30:00,BTCUSD,30,1630319400,47920.5,48073,47894.5,48045.5,39049970,813.6866614000076,48587.20621100961,48105.8,47624.3937889904,38.31465497826226,77.0,220.59450523293486
2021-08-30 21:00:00,BTCUSD,30,1630321200,48045.5,48045.5,47800,47800.5,46498072,970.327434019979,48501.78066955737,48064.85,47627.91933044263,32.6254894721933,-142.0,222.3734691448681
2021-08-30 21:30:00,BTCUSD,30,1630323000,47800.5,47964.5,47688,47944.5,132086441,2762.281965580051,48413.13627790382,48034.625,47656.11372209618,38.41375524433895,44.0,226.23964992023465
2021-08-30 22:00:00,BTCUSD,30,1630324800,47944.5,47945,47539.5,47588,147528386,3094.155731690006,48291.845810477316,47981.55,47671.25418952269,31.254777963194837,-369.0,239.04396064021788
2021-08-30 22:30:00,BTCUSD,30,1630326600,47588,47811.5,47523,47635.5,146945460,3083.0369626099246,48204.63430406035,47940.8,47676.96569593965,33.045237264142465,-394.0,242.57653488020233
2021-08-30 23:00:00,BTCUSD,30,1630328400,47635.5,47697,47422,47547.5,129336012,2718.610372159989,48221.97037029697,47914.65,47607.32962970303,31.412922091190843,-313.5,244.89249667447362
2021-08-30 23:30:00,BTCUSD,30,1630330200,47547.5,47790,47501.5,47779.5,68896480,1444.667365179929,48216.907779822184,47905.2,47593.49222017781,39.84878551017606,-208.0,248.00731834058266
2021-08-31 00:00:00,BTCUSD,30,1630332000,47779.5,47929,47774,47921,98338872,2053.7956749800032,48215.458884279215,47904.125,47592.791115720785,44.34497647106012,-98.0,241.36393845911246
2021-08-31 00:30:00,BTCUSD,30,1630333800,47921,47921.5,47710,47734,90257175,1888.0284794799813,48215.85849465157,47895.8,47575.74150534844,40.081053717771745,-231.0,239.23079999774728
2021-08-31 01:00:00,BTCUSD,30,1630335600,47734,47907.5,47707,47904,54705001,1143.5964649599784,48212.013152463696,47893.15,47574.28684753631,45.23630284944101,-169.5,236.46431428362249
2021-08-31 01:30:00,BTCUSD,30,1630337400,47904,48144,47904,48080,112405313,2338.996357739957,48219.57703380058,47895.675,47571.77296619942,50.029724811160214,-38.0,236.71686326336376
2021-08-31 02:00:00,BTCUSD,30,1630339200,48080,48178,48040,48161.5,56971628,1183.9988409300051,48254.06808238579,47910.7,47567.3319176142,52.11969196746635,136.0,229.66565874455208
2021-08-31 02:30:00,BTCUSD,30,1630341000,48161.5,48213,48095,48212.5,43589167,904.9413562699772,48288.60022842117,47921.95,47555.29977157882,53.43222563684492,249.0,221.68954026279835
2021-08-31 03:00:00,BTCUSD,30,1630342800,48212.5,48232,48104,48153,48622909,1009.673667429977,48306.8641060297,47928.65,47550.4358939703,51.65319993874672,232.5,214.99743024402704
2021-08-31 03:30:00,BTCUSD,30,1630344600,48153,48350,48132,48350,42950372,890.572752499998,48368.38372144409,47947.9,47527.41627855592,56.78370829396548,304.5,215.21189951231082
2021-08-31 04:00:00,BTCUSD,30,1630346400,48350,48431,48230,48286,72498594,1499.6387829900198,48401.31416822735,47958.525,47515.735831772654,54.75096347956943,485.5,214.19676383286006
2021-08-31 04:30:00,BTCUSD,30,1630348200,48286,48535,48285.5,48535,52334534,1080.5837759799983,48485.04444489421,47979.375,47473.70555510579,60.652679759328535,590.5,216.71842355908436
2021-08-31 05:00:00,BTCUSD,30,1630350000,48535,48580,48436.5,48509.5,73457409,1514.1887009300067,48559.578621840854,48003.575,47447.57137815914,59.79259371555452,921.5,211.4885361620069
2021-08-31 05:30:00,BTCUSD,30,1630351800,48509.5,48640,48488,48639.5,48936237,1007.6704641799937,48657.96277582224,48037.375,47416.78722417776,62.69679001181066,1004.0,207.23935500757784
2021-08-31 06:00:00,BTCUSD,30,1630353600,48639.5,48735.5,48611,48628,79552595,1634.4851227999657,48741.449671003356,48072.75,47404.050328996644,62.26831431939445,1080.5,201.3294010784651
2021-08-31 06:30:00,BTCUSD,30,1630355400,48628,48760,48603.5,48704,59268215,1217.3998645099957,48828.42656692974,48105.675,47382.92343307027,64.01840952387981,924.5,198.1273010014319
2021-08-31 07:00:00,BTCUSD,30,1630357200,48704,48720.5,48225,48280,153291598,3165.0448864400196,48842.05586044797,48129.65,47417.244139552036,50.06634936790475,359.0,219.36820807275822
2021-08-31 07:30:00,BTCUSD,30,1630359000,48280,48499,48240,48467.5,74106247,1530.9355634400374,48877.43650129263,48155.8,47434.16349870738,54.76161973750312,733.5,222.19905035327548
2021-08-31 08:00:00,BTCUSD,30,1630360800,48467.5,48516.5,47770,47851.5,189389492,3939.2695020899837,48857.52800994286,48168.975,47480.42199005714,41.09123813310029,-52.5,259.64911818518436
2021-08-31 08:30:00,BTCUSD,30,1630362600,47851.5,47880,47569,47649,161007035,3373.922960019996,48856.13314618832,48169.65,47483.16685381169,37.7546415350339,-431.0,263.31703831481406
2021-08-31 09:00:00,BTCUSD,30,1630364400,47649,47649.5,47259,47394.5,190779683,4024.911603609964,48878.78616058042,48162.0,47445.21383941958,34.016222328835966,-767.0,272.40153557804166
2021-08-31 09:30:00,BTCUSD,30,1630366200,47394.5,47394.5,46873,46993,295625406,6279.183666170174,48989.65108242572,48122.675,47255.698917574286,29.11777656826611,-1219.5,290.194283036753
2021-08-31 10:00:00,BTCUSD,30,1630368000,46993,47110,46745,46768.5,189404052,4034.8695779601117,49112.42213539381,48065.05,47017.677864606194,26.794340271584705,-1384.5,295.5375485341278
2021-08-31 10:30:00,BTCUSD,30,1630369800,46768.5,46911,46712,46848.5,99443580,2124.645676450019,49188.34823003718,48020.775,46853.20176996282,28.969425177950527,-1501.5,288.6420093531186
2021-08-31 11:00:00,BTCUSD,30,1630371600,46848.5,47011,46788,46930,83008646,1768.843923879971,49232.61902045419,47972.075,46711.5309795458,31.211747987138878,-1356.0,283.9532943993244
2021-08-31 11:30:00,BTCUSD,30,1630373400,46930,46955.5,46810,46884,51372060,1095.5158057799758,49257.309924267145,47912.275,46567.24007573286,30.624121516520848,-1651.0,274.06377337080124
2021-08-31 12:00:00,BTCUSD,30,1630375200,46884,47055.5,46796.5,47055.5,52496269,1119.1621950799927,49246.67879847685,47856.975,46467.271201523145,35.49980247952987,-1454.0,272.98778955860115
2021-08-31 12:30:00,BTCUSD,30,1630377000,47055.5,47055.5,46957,47018.5,40448253,860.673541700017,49222.8796953835,47797.275,46371.670304616506,34.92945325497264,-1621.0,260.52437601870105
2021-08-31 13:00:00,BTCUSD,30,1630378800,47018.5,47163.5,47018.5,47138,55282749,1173.6239397100178,49190.01630496203,47746.525,46303.03369503797,38.37323150418586,-1490.0,252.27263487450813
2021-08-31 13:30:00,BTCUSD,30,1630380600,47138,47180,47059,47158.5,55874484,1185.7534837900282,49124.23518047064,47686.95,46249.66481952935,38.96994399718775,-1545.5,242.89601809775755
2021-08-31 14:00:00,BTCUSD,30,1630382400,47158.5,47257.5,47103,47224.5,70703506,1498.179612690007,49057.08288625555,47633.875,46210.66711374445,40.95226391307888,-1055.5,236.5820168050606
2021-08-31 14:30:00,BTCUSD,30,1630384200,47224.5,47273.5,47017,47080,57541632,1220.365975869991,48940.72664087319,47561.125,46181.52335912681,38.03907581099709,-1387.5,238.00472989041342
2021-08-31 15:00:00,BTCUSD,30,1630386000,47080,47177,47035.5,47169.5,38518466,817.6176441099975,48811.75001778769,47494.125,46176.49998221231,40.84590076765856,-682.0,231.11153489824102
2021-08-31 15:30:00,BTCUSD,30,1630387800,47169.5,47186,47125,47165.5,23483013,497.97650016998995,48634.35705225756,47420.425,46206.492947742445,40.75703762008409,-483.5,218.9607109769381
2021-08-31 16:00:00,BTCUSD,30,1630389600,47165.5,47229,47040,47091.5,54490445,1156.0136367500131,48429.88429059775,47343.6,46257.315709402246,39.063851550132114,-303.0,216.8206601928711
2021-08-31 16:30:00,BTCUSD,30,1630391400,47091.5,47128,46957,47011,54134461,1150.9274577900128,48155.24124172881,47258.95,46362.65875827119,37.250894058713214,18.0,213.5477558933803
2021-08-31 17:00:00,BTCUSD,30,1630393200,47011,47451,46853,47429,140530105,2977.7181304900064,47986.705627657124,47216.4,46446.09437234288,50.18030430377032,660.5,241.00863047242456
2021-08-31 17:30:00,BTCUSD,30,1630395000,47429,47925,47379,47792.5,271314471,5688.156815100121,47767.57949147759,47182.65,46597.72050852241,58.23884637254936,944.0,262.7937282958228
2021-08-31 18:00:00,BTCUSD,30,1630396800,47792.5,47986,47670.5,47978,167103554,3494.406270980016,47804.62648217264,47188.975,46573.32351782735,61.64815163372811,1048.0,266.5584619889783
2021-08-31 18:30:00,BTCUSD,30,1630398600,47978,48010,47725,47780.5,121469675,2537.3334069300863,47833.131045827315,47195.55,46557.96895417269,56.37147290147377,896.5,267.8757147040513
2021-08-31 19:00:00,BTCUSD,30,1630400400,47780.5,47810,47464.5,47520.5,130681655,2744.888947990076,47849.57919495775,47201.85,46554.12080504225,50.271181049380374,465.0,273.42030651090477
2021-08-31 19:30:00,BTCUSD,30,1630402200,47520.5,47578,47374,47411,81114168,1708.0228217799922,47869.14844523387,47222.75,46576.35155476613,47.91923909798755,392.5,268.4617131886973
2021-08-31 20:00:00,BTCUSD,30,1630404000,47411,47415.5,47200,47360,149745194,3164.7703804999287,47866.19072432457,47252.325,46638.45927567542,46.82052541408685,222.0,264.6787336752189
2021-08-31 20:30:00,BTCUSD,30,1630405800,47360,47721,47280,47444,165193501,3476.648870139954,47872.03038572412,47282.1,46692.169614275874,48.89878429780242,285.5,277.2731098412747
2021-08-31 21:00:00,BTCUSD,30,1630407600,47444,47800,47375,47800,173540456,3647.601517730009,47933.29898798778,47325.6,46717.90101201222,56.63381764552555,575.5,287.8250305668979
2021-08-31 21:30:00,BTCUSD,30,1630409400,47800,48140.5,47799.5,48050.5,303939084,6336.615336570082,48033.37455731682,47383.925,46734.475442683186,61.0961872624483,970.5,291.62324266926237
2021-08-31 22:00:00,BTCUSD,30,1630411200,48050.5,48237.5,47903.5,47903.5,191534627,3984.6777118399514,48094.915104249914,47426.325,46757.73489575008,57.3657373250239,734.0,294.65015390717224
2021-08-31 22:30:00,BTCUSD,30,1630413000,47903.5,48023,47784.5,47859.5,81581946,1703.6927964400554,48134.86114951879,47468.375,46801.88885048121,56.258463586003096,694.0,290.6394286280885
2021-08-31 23:00:00,BTCUSD,30,1630414800,47859.5,48051,47726,47750.5,88554592,1849.2846587000415,48158.197694171016,47499.0,46839.802305828984,53.50333556990833,659.0,293.0937551546536
2021-08-31 23:30:00,BTCUSD,30,1630416600,47750.5,47923.5,47750,47923.5,45893737,959.4144017899642,48201.73577862915,47537.25,46872.76422137085,57.094773790529096,912.5,284.5513440721783
2021-09-01 00:00:00,BTCUSD,30,1630418400,47923.5,48323,47456,47514.5,361750159,7557.9760413399035,48200.781085542425,47551.75,46902.718914457575,47.71191215719834,85.5,326.1548194955941
2021-09-01 00:30:00,BTCUSD,30,1630420200,47514.5,47629,47258,47320.5,168559797,3551.2896640400754,48185.746580941675,47563.775,46941.80341905833,44.01685571465272,-472.0,329.35804667448025
2021-09-01 01:00:00,BTCUSD,30,1630422000,47320.5,47482,47233,47428.5,86102410,1817.8419888199899,48175.680046309055,47576.725,46977.76995369094,46.50083498553473,-549.5,323.61818619773163
2021-09-01 01:30:00,BTCUSD,30,1630423800,47428.5,47500.5,47306.5,47462.5,62494103,1318.2704106300398,48163.110937191435,47591.575,47020.03906280856,47.293688849111284,-318.0,314.3597443264651
2021-09-01 02:00:00,BTCUSD,30,1630425600,47462.5,47517.5,47320,47459.5,106628866,2248.8876616299085,48137.96443881649,47609.975,47081.98556118351,47.2271821798851,-61.0,306.01261973171756
2021-09-01 02:30:00,BTCUSD,30,1630427400,47459.5,47600,47410,47410.5,55268212,1163.1673203899343,48091.88147760511,47629.95,47168.01852239489,46.08719032209084,-0.5,297.72600403659493
2021-09-01 03:00:00,BTCUSD,30,1630429200,47410.5,47465.5,47325,47325.5,45399067,957.9410045600291,48097.7817097811,47624.775,47151.768290218904,44.09861434844235,-34.5,286.49557517683814
2021-09-01 03:30:00,BTCUSD,30,1630431000,47325.5,47335.5,47060,47170.5,115859882,2455.336141450063,48099.15826134442,47593.675,47088.19173865559,40.65383849099692,-273.5,285.71017694992116
2021-09-01 04:00:00,BTCUSD,30,1630432800,47170.5,47262.5,47100,47219,49251396,1044.22087559,48054.009705264965,47555.725,47057.44029473503,42.17592536435769,-581.0,276.9094500249268
2021-09-01 04:30:00,BTCUSD,30,1630434600,47219,47430,47218.5,47377,72392051,1530.2353626599884,48028.442777385724,47535.55,47042.65722261428,46.949425401657514,-673.5,272.23734645171777
2021-09-01 05:00:00,BTCUSD,30,1630436400,47377,47431,47357,47358,28701732,605.6840269100265,48026.362598802705,47527.425,47028.4874011973,46.45280859461348,-545.5,258.0775359908808
2021-09-01 05:30:00,BTCUSD,30,1630438200,47358,47420.5,47248,47374.5,35225161,744.1533143600218,48026.49086635889,47525.6,47024.70913364111,46.97733542419498,-485.0,251.96485484867503
2021-09-01 06:00:00,BTCUSD,30,1630440000,47374.5,47374.5,47170.5,47244,41630100,880.5345557699832,48030.81090007698,47519.8,47008.78909992303,43.35967130274239,-506.5,248.53879378805536
2021-09-01 06:30:00,BTCUSD,30,1630441800,47244,47314.5,46939.5,47032.5,83498160,1772.6260954699762,48052.20053969432,47499.225,46946.24946030568,38.22229720712599,-891.0,257.57173708890855
2021-09-01 07:00:00,BTCUSD,30,1630443600,47032.5,47131.5,46902.5,47046,67075073,1427.1394130800443,48029.93176236254,47461.525,46893.11823763746,38.72137962388934,-468.5,255.53089872541508
2021-09-01 07:30:00,BTCUSD,30,1630445400,47046,47261.5,46986.5,46989,95287176,2022.2102248500494,47944.26348434138,47408.45,46872.63651565861,37.349393134627576,-331.5,256.9215488164569
2021-09-01 08:00:00,BTCUSD,30,1630447200,46989,47031,46801.5,46894.5,92554299,1972.6672821400032,47887.83893779076,47358.0,46828.16106220924,35.127188545906016,-534.0,254.96286675813855
2021-09-01 08:30:00,BTCUSD,30,1630449000,46894.5,47151.5,46800,47139.5,72771941,1549.1510985599728,47806.554744068446,47322.0,46837.445255931554,44.36862066205936,-323.0,261.85837627541434
2021-09-01 09:00:00,BTCUSD,30,1630450800,47139.5,47274,47062.5,47243.5,55291519,1171.6086626699796,47740.195724812525,47296.65,46853.10427518748,47.76995185857555,-216.0,258.261349398599
2021-09-01 09:30:00,BTCUSD,30,1630452600,47243.5,47390,47171,47177,78551826,1660.4783295300347,47599.08260109365,47259.325,46919.56739890634,45.83999907593117,-233.5,255.45696729869908
2021-09-01 10:00:00,BTCUSD,30,1630454400,47177,47377,46924,47080,150490704,3192.4514325198625,47564.641220645026,47237.6,46910.55877935497,43.1044248265001,-245.5,269.5671839202206
2021-09-01 10:30:00,BTCUSD,30,1630456200,47080,47096,46751,46809,72326833,1542.4869637099891,47585.79598268789,47212.025,46838.254017312116,36.543100070059175,-361.5,274.9552422116334
2021-09-01 11:00:00,BTCUSD,30,1630458000,46809,46850,46576,46700,145827338,3123.479017490008,47596.859136401974,47175.6,46754.34086359802,34.28269376843057,-519.0,274.8870106250882
2021-09-01 11:30:00,BTCUSD,30,1630459800,46700,46881.5,46614,46881.5,86073366,1840.5999574400018,47564.78473074221,47146.55,46728.31526925779,40.844332237700904,-495.5,274.35936700901044
2021-09-01 12:00:00,BTCUSD,30,1630461600,46881.5,47038.5,46801,47038,68282838,1456.2364996799693,47520.33288266092,47125.475,46730.617117339076,45.86364176239787,-320.0,271.72655507979545
2021-09-01 12:30:00,BTCUSD,30,1630463400,47038,47148,46909,46940.5,55095001,1171.768773860025,47481.84214453952,47101.975,46722.107855460476,43.393363436708164,-434.0,269.3889440026672
2021-09-01 13:00:00,BTCUSD,30,1630465200,46940.5,46972,46806,46824.5,47610851,1015.6741145999722,47460.58478092497,47076.925,46693.26521907504,40.59208204767534,-419.5,262.0040194310481
2021-09-01 13:30:00,BTCUSD,30,1630467000,46824.5,47105,46750,47096,64449740,1372.7119676599948,47454.59328782787,47073.2,46691.806712172125,48.90590318362509,63.5,268.6465894716875
2021-09-01 14:00:00,BTCUSD,30,1630468800,47096,47288.5,47039.5,47183.5,77131498,1634.704026730028,47450.41039219588,47071.425,46692.439607804125,51.27265124143984,137.5,267.2432616522812
2021-09-01 14:30:00,BTCUSD,30,1630470600,47183.5,47250,47072.5,47185.5,36668294,777.8225043199915,47418.48792563412,47061.85,46705.212074365874,51.3281477680653,196.5,260.83302867711825
2021-09-01 15:00:00,BTCUSD,30,1630472400,47185.5,47455,47159,47287,106794347,2257.4799348100078,47404.33141475575,47058.3,46712.26858524426,54.18025851464222,392.5,263.34495520018123
2021-09-01 15:30:00,BTCUSD,30,1630474200,47287,47500,47259,47457.5,72458237,1527.869527999988,47425.14062574276,47062.45,46699.759374257235,58.57189700611144,318.0,261.74888697159685
2021-09-01 16:00:00,BTCUSD,30,1630476000,47457.5,47494.5,47335,47350,46617171,983.5721468100286,47443.751396272986,47067.75,46691.748603727014,54.99299284810854,106.5,254.44539504505423
2021-09-01 16:30:00,BTCUSD,30,1630477800,47350,47489,47259,47370,62802258,1325.7021972499947,47482.44466705938,47084.625,46686.80533294062,55.53732325801365,193.0,252.6992953989789
2021-09-01 17:00:00,BTCUSD,30,1630479600,47370,47460,47332.5,47339.5,42072347,887.9003886300268,47511.72325346497,47099.3,46686.87674653504,54.455689455452074,259.5,243.75648858476615
2021-09-01 17:30:00,BTCUSD,30,1630481400,47339.5,47340,47144.5,47222,69880841,1479.5409578300055,47523.41562281152,47110.95,46698.48437718848,50.38455500924466,413.0,240.30959654299713
2021-09-01 18:00:00,BTCUSD,30,1630483200,47222,47450,47156.5,47275.5,86608743,1830.061801409962,47535.85896565186,47130.0,46724.14103434814,52.139057657061336,575.5,244.10891107564018
